;CAT1;CAT2;CAT3;ID;Caption
;animal;bear;;bear:bear_eating;bear eating
;animal;bear;;bear:bear_sleep;bear sleep
;animal;bear;;bear:bear_sleep_jt;bear sleep
;animal;bear;;bear:bear_taunt;bear taunt
;animal;bear;;bear:q201_stuffed_bear_jt;q201 stuffed bear
;animal;cat;;cat:cat_eating_jt;cat eating
;animal;cat;;ep1_cat:q604_cat_sit;q604 cat sit
;animal;dog;;dog:dog_eat_jt;dog eat
;animal;dog;;dog:dog_lay_it;dog lay
;animal;dog;;dog:dog_scratch_it;dog scratch
;animal;dog;;dog:dog_sit_it;dog sit
;animal;dog;;ep2_dog:dog_tricks_jt;dog tricks
;animal;dog;;dog:q602_dog_eat_jt;q602 dog eat
;animal;dog;;ep1_dog:q604_dog_sit;q604 dog sit
;animal;dog;;dog:sq301_hound_idle;sq301 hound idle
;animal;dog;;dog:sq301_hound_lay;sq301 hound lay
;animal;goat;;goat:goat_eating_jt;goat eating
;animal;goat;;goat:goat_lying_jt;goat lying
;animal;goat;;goat:goat_lying_tied_up_jt;goat lying tied up
;animal;goat;;goat:goat_scared_jt;goat scared
;animal;horse;;horse:horse_parking;horse parking
;animal;horse;;horse:horse_still_jt;horse still
;animal;horse;;horse:q703_horse_rearing;q703 horse rearing
;animal;panther;;ep2_panther:panther_crouch_jt;panther crouch
;animal;panther;;ep2_panther:panther_eating_jt;panther eating
;animal;panther;;ep2_panther:panther_laying_jt;panther laying
;animal;panther;;ep2_panther:q703_panther_taunting_jt;q703 panther taunting
;animal;panther;;ep2_panther:sq701_panther_taunting_jt;sq701 panther taunting
;animal;wolf;;wolf:q201_stuffed_wolf_jt;q201 stuffed wolf
;animal;wolf;;wolf:q703_jt_dog_taunting;q703 dog taunting
;animal;wolf;;wolf:wolf_eating;wolf eating
;animal;wolf;;wolf:wolf_howling;wolf howling
;animal;wolf;;wolf:wolf_sit_jt;wolf sit
;animal;wolf;;wolf:wolf_sleep_jt;wolf sleep
;animal;wolf;;wolf:wolf_sniffing;wolf sniffing
;animal;wolf;;wolf:wolf_standing_idle_high;wolf standing idle high
;animal;wolf;;wolf:wolf_taunting;wolf taunting
;animal;;;deer:deer_eating;deer eating
;animal;;;owl:owl_idle_jt;owl idle
;animal;;;pig:pig_idle_jt;pig idle
;animal;;;sheep:sheep_eating_jt;sheep eating
;canaris;;;canaris:q501_canaris_casting;q501 canaris casting
;canaris;;;canaris:q501_geralt_freeze;q501 geralt freeze
;child;emotional;;default_child:stand_mwdc_bored_jt;stand bored
;child;emotional;;default_child:stand_mwdc_bored_jt_short;stand bored short
;child;emotional;;default_child:stand_mwc_listening_jt;stand mwc listening
;child;playing;kneeling;play_child:kneel_c_hide_and_seek_jt;kneel hide and seek
;child;playing;kneeling;play_child:kneel_c_playing_puddle_jt;kneel playing puddle
;child;playing;kneeling;play_child:kneel_c_playing_stick_01_jt;kneel playing stick 01
;child;playing;kneeling;play_child:kneel_c_playing_stick_02_jt;kneel playing stick 02
;child;playing;kneeling;play_child:kneel_c_searching_ground_jt;kneel searching ground
;child;playing;kneeling;play_child:kneel_c_searching_ground_jt_unconcious;kneel searching ground unconcious
;child;playing;standing;play_child:stand_c_balancing_jt;stand balancing
;child;playing;standing;play_child:stand_c_balancing_dynamic_jt;stand balancing dynamic
;child;playing;standing;play_child:stand_c_cheering_01_jt;stand cheering 01
;child;playing;standing;play_child:stand_c_cheering_02_jt;stand cheering 02
;child;playing;standing;play_child:stand_c_cheering_03_jt;stand cheering 03
;child;playing;standing;play_child:stand_c_cheering_sequence_jt;stand cheering sequence
;child;playing;standing;play_child:stand_c_hopscotch_jt;stand hopscotch
;child;playing;standing;play_child:stand_c_hopscotch_dynamic_jt;stand hopscotch dynamic
;child;playing;standing;play_child:stand_c_inspect_jt;stand inspect
;child;playing;standing;play_child:stand_c_looking_around_jt;stand looking around
;child;playing;standing;play_child:stand_c_play_bow_jt;stand play bow
;child;playing;standing;play_child:stand_c_play_bow_dynamic_jt;stand play bow dynamic
;child;playing;standing;play_child:stand_c_play_sword_01_jt;stand play sword 01
;child;playing;standing;play_child:stand_c_play_sword_01_dynamic_jt;stand play sword 01 dynamic
;child;playing;standing;play_child:stand_c_play_sword_02_jt;stand play sword 02
;child;playing;standing;play_child:stand_c_play_sword_02_dynamic_jt;stand play sword 02 dynamic
;child;playing;standing;play_child:stand_c_playing_doll_jt;stand playing doll
;child;playing;standing;ep2_child:stand_c_playing_flute_jt;stand playing flute
;child;playing;standing;ep2_child:stand_c_playing_flute_dynamic_jt;stand playing flute dynamic
;child;playing;standing;play_child:stand_c_playing_stick_jt;stand playing stick
;child;playing;standing;play_child:stand_c_pointing_loop_jt;stand pointing loop
;child;playing;standing;play_child:stand_c_pointing_once_jt;stand pointing once
;child;playing;standing;play_child:stand_c_throw_rocks_jt;stand throw rocks
;child;playing;standing;play_child:stand_c_throw_rocks_aggressive_jt;stand throw rocks aggressive
;child;playing;standing;play_child:stand_c_throw_rocks_aggressive_ik_jt;stand throw rocks aggressive ik
;child;playing;standing;play_child:stand_c_throw_rocks_ik_jt;stand throw rocks ik
;child;playing;standing;play_child:stand_c_throw_snowballs_jt;stand throw snowballs
;child;playing;;play_child:e3_johnny_play_stick;e3 johnny play stick
;child;playing;;play_child:lie_mwdc_sleep_ground_conscious_jt;lie sleep ground conscious
;child;playing;;play_child:q301_sara_play_stick;q301 sara play stick
;child;playing;;play_child:q505_boy_hides;q505 boy hides
;child;quest;;work_child:mq7002_jt_sleepy_knight;mq7002 sleepy knight
;child;quest;;default_child:q105_child_hide;q105 child hide
;child;quest;;default_child:q105_child_scared;q105 child scared
;child;quest;;default_child:q105_child_sit_logs;q105 child sit logs
;child;quest;;default_child:q107_johnny_sleep;q107 johnny sleep
;child;quest;;child_quest:q111_godling_piss;q111 godling piss
;child;quest;;quest_child:q311_sara_cheerful;q311 sara cheerful
;child;quest;;default_child:q701_stand_child_crying_jt;q701 stand child crying
;child;quest;;ep2_dialog_child:q704_boy_orphanage_jt;q704 boy orphanage
;child;quest;;ep2_child:q704_c_fleder_child_jt;q704 fleder child
;child;quest;;child_dlg_det:q705_jt_bootblack_wait;q705 bootblack wait
;child;quest;;default_child:stand_c_crying_interrupt_jt;stand crying interrupt
;child;rain;;rain_shelter_child:rain_kneel_c_playing_puddle_jt;rain kneel playing puddle
;child;rain;;rain_shelter_child:rain_stand_c_scared_jt;rain stand scared
;child;resting;sitting;resting_child:q304_sit_c_ground_class_jt;q304 sit ground class
;child;resting;sitting;resting_child:q304_sit_c_ground_class_bored_jt;q304 sit ground class bored
;child;resting;sitting;resting_child:q304_sit_c_ground_long_jt;q304 sit ground long
;child;resting;sitting;resting_child:sit_c_chair_jt;sit chair
;child;resting;sitting;resting_child:sit_c_ground_jt;sit ground
;child;resting;standing;default_child:stand_mwdc_idle_jt;stand idle
;child;resting;standing;default_child:stand_mwdc_idle_short_jt;stand idle short
;child;resting;;resting_child:lie_mwdc_bed_still_no_mesh_jt;lie bed still no mesh
;child;resting;;resting_child:q103_child_on_tree_jt;q103 child on tree
;child;sleeping;;resting_child:lie_mwdc_sleep_bed_l_jt;lie sleep bed l
;child;sleeping;;resting_child:lie_mwdc_sleep_bed_l_new_jt;lie sleep bed l new
;child;sleeping;;resting_child:lie_mwdc_sleep_bed_l_new_dress_jt;lie sleep bed l new dress
;child;sleeping;;resting_child:lie_mwdc_sleep_bed_r_jt;lie sleep bed r
;child;sleeping;;resting_child:lie_mwdc_sleep_bed_r_new_jt;lie sleep bed r new
;child;sleeping;;resting_child:lie_mwdc_sleep_bed_r_new_dress_jt;lie sleep bed r new dress
;child;sleeping;;play_child:lie_mwdc_sleep_ground_jt;lie sleep ground
;child;sleeping;;work_child:sit_mwd_ground_sleep_jt;sit ground sleep
;child;sleeping;;work_child:sleep_bed;sleep bed
;child;training;;work_child:q001_ciri_training_jt_new;q001 ciri training new
;child;;;default_child:kneel_c_crouch_jt;kneel crouch
;child;;;default_child:sit_c_fishing_jt;sit fishing
;child;;;ep2_child:stand_c_catching_fish_jt;stand catching fish
;child;;;ep2_child:stand_c_catching_fish_dynamic_jt;stand catching fish dynamic
;child;;;default_child:stand_c_crying_jt;stand crying
;child;;;work_child:stand_c_peeing_jt;stand peeing
;child;;;default_child:stand_c_scared_jt;stand scared
;child;;;default_child:stand_c_sick_jt;stand sick
;dwarf;dining;;work_dwarf:sit_mwd_dining_loud_jt;sit dining loud
;dwarf;dining;;work_dwarf:sit_mwd_drinking_loud_jt;sit drinking loud
;dwarf;emotional;;work_dwarf:stand_mwdc_bored_jt;stand bored
;dwarf;emotional;;work_dwarf:stand_mwdc_bored_jt_short;stand bored short
;dwarf;guarding;;guarding:sq304_dwarf_guarding_entrance_jt;sq304 dwarf guarding entrance
;dwarf;guarding;;work_dwarf:sq304_dwarf_guarding_entrance_jt;sq304 dwarf guarding entrance
;dwarf;guarding;;work_dwarf:stand_md_guard_axe_jt;stand guard axe
;dwarf;guarding;;work_dwarf:stand_md_guard_sword_jt;stand guard sword
;dwarf;guarding;;work_dwarf:stand_md_guarding_entrance_jt;stand guarding entrance
;dwarf;marketplace;;work_dwarf:stand_mwd_greeting_official_jt;stand greeting official
;dwarf;marketplace;;work_dwarf:stand_mwd_looking_at_goods_jt;stand looking at goods
;dwarf;marketplace;;work_dwarf:stand_mwd_looking_at_goods_short_jt;stand looking at goods short
;dwarf;quest;;work_dwarf:lie_mwdc_bed_still_no_mesh_jt;lie bed still no mesh
;dwarf;quest;;work_dwarf:lie_mwdc_sleep_ground_conscious_jt;lie sleep ground conscious
;dwarf;quest;;dwarf_dialog_sitting:mq3026_audience_mw1;mq3026 audience mw1
;dwarf;quest;;dwarf_dialog_sitting:mq3026_audience_mw2;mq3026 audience mw2
;dwarf;quest;;work_dwarf:mq6004_jt_boxes;mq6004 boxes
;dwarf;quest;;work_dwarf:mq7002_jt_sleepy_knight;mq7002 sleepy knight
;dwarf;quest;;work_dwarf:q302_cards_player;q302 cards player
;dwarf;quest;;dwarf_dialogue_sitting:q305_audience_bench;q305 audience bench
;dwarf;quest;;dwarf_dialogue_sitting:q305_audience_bench2;q305 audience bench2
;dwarf;quest;;work_dwarf:q305_midget_lean_back_wall_sleep;q305 midget lean back wall sleep
;dwarf;quest;;dwarf_dialog_sitting:q305_zoltan_dudu;q305 zoltan dudu
;dwarf;quest;;work_dwarf:q309_bottles_merchant_jt;q309 bottles merchant
;dwarf;quest;;work_dwarf:q402_dwarf_dopey_jt;q402 dwarf dopey
;dwarf;quest;;work_dwarf:q402_sleepy_waiting_jt;q402 sleepy waiting
;dwarf;quest;;work_dwarf:q504_zoltan_table;q504 zoltan table
;dwarf;quest;;dwarf_dialog_sitting:q505_ciri_bench;q505 ciri bench
;dwarf;quest;;dwarf_dialog_sitting:q603_vivaldi_sitting_jt;q603 vivaldi sitting
;dwarf;quest;;work_dwarf:q701_stand_child_crying_jt;q701 stand child crying
;dwarf;quest;;dwarf_dialog_sitting:sit_mwd_chair_ignore_collision_jt;sit chair ignore collision
;dwarf;quest;;work_dwarf:stand_mwd_looking_in_direction_jt;stand looking in direction
;dwarf;rain;;rain_shelter_dwarf:rain_stand_d_spit_jt;rain stand d spit
;dwarf;resting;sitting;dwarf_dialog_sitting:sit_mwd_bench_jt;sit bench
;dwarf;resting;sitting;dwarf_dialog_sitting:sit_mwd_chair_jt;sit chair
;dwarf;resting;sitting;dwarf_dialog_sitting:sit_d_bench_shackled_jt;sit d bench shackled
;dwarf;resting;sitting;work_dwarf:sit_d_ground_jt;sit d ground
;dwarf;resting;sitting;work_dwarf:sit_md_playing_cards_01_jt;sit playing cards 01
;dwarf;resting;sitting;work_dwarf:sit_md_playing_cards_02_jt;sit playing cards 02
;dwarf;resting;sitting;work_dwarf:sit_md_playing_cards_03_jt;sit playing cards 03
;dwarf;resting;sitting;work_dwarf:sit_md_smoking_jt;sit smoking
;dwarf;resting;sitting;work_dwarf:sit_md_smoking_dress_jt;sit smoking dress
;dwarf;resting;standing;work_dwarf:stand_mwd_arms_crossed_jt;stand arms crossed
;dwarf;resting;standing;work_dwarf:stand_mwd_arms_crossed_short_jt;stand arms crossed short
;dwarf;resting;standing;work_dwarf:stand_mw_coughing_jt;stand coughing
;dwarf;resting;standing;work_dwarf:stand_mwdc_idle_jt;stand idle
;dwarf;resting;standing;work_dwarf:stand_mwdc_idle_short_jt;stand idle short
;dwarf;resting;standing;work_dwarf:stand_md_playing_axe_jt;stand playing axe
;dwarf;resting;standing;work_dwarf:stand_md_playing_axe_jt_play_loop;stand playing axe play loop
;dwarf;resting;standing;work_dwarf:stand_mwd_scratching_jt;stand scratching
;dwarf;resting;standing;work_dwarf:stand_mwd_sick_jt;stand sick
;dwarf;resting;standing;work_dwarf:stand_md_spit_jt;stand spit
;dwarf;resting;;work_dwarf:kneel_mw_unconscious_jt;kneel unconscious
;dwarf;rude;;work_dwarf:sit_md_sleep_drunk_jt;sit sleep drunk
;dwarf;rude;;work_dwarf:stand_md_drunk_jt;stand drunk
;dwarf;rude;;work_dwarf:stand_md_puke_jt;stand puke
;dwarf;rude;;work_dwarf:stand_md_slightly_drunk_jt;stand slightly drunk
;dwarf;sleeping;;work_dwarf:lie_mwdc_sleep_bed_l_jt;lie sleep bed l
;dwarf;sleeping;;work_dwarf:lie_mwdc_sleep_bed_l_new_jt;lie sleep bed l new
;dwarf;sleeping;;work_dwarf:lie_mwdc_sleep_bed_l_new_dress_jt;lie sleep bed l new dress
;dwarf;sleeping;;work_dwarf:lie_mwdc_sleep_bed_r_jt;lie sleep bed r
;dwarf;sleeping;;work_dwarf:lie_mwdc_sleep_bed_r_new_jt;lie sleep bed r new
;dwarf;sleeping;;work_dwarf:lie_mwdc_sleep_bed_r_new_dress_jt;lie sleep bed r new dress
;dwarf;sleeping;;work_dwarf:lie_mwdc_sleep_ground_jt;lie sleep ground
;dwarf;sleeping;;work_dwarf:q402_dwarf_sleeping_jt;q402 dwarf sleeping
;dwarf;sleeping;;work_dwarf:sit_mwd_ground_sleep_jt;sit ground sleep
;dwarf;work;kneeling;work_dwarf:kneel_md_hammering_jt;kneel hammering
;dwarf;work;kneeling;work_dwarf:kneel_mw_jt;kneel mw
;dwarf;work;kneeling;work_dwarf:kneel_mw_search_ground_jt;kneel search ground
;dwarf;work;standing;work_dwarf:stand_md_chopping_tree_jt;stand chopping tree
;dwarf;work;standing;work_dwarf:stand_md_chopping_wood_jt;stand chopping wood
;dwarf;work;standing;work_dwarf:stand_md_digging_ground_jt;stand digging ground
;dwarf;work;standing;work_dwarf:stand_md_digging_ground_dynamic_jt;stand digging ground dynamic
;dwarf;work;standing;work_dwarf:stand_mwd_farmer_hoe_jt;stand farmer hoe
;dwarf;work;standing;work_dwarf:stand_md_forging_sword_jt;stand forging sword
;dwarf;work;standing;work_dwarf:stand_md_ghost_miner_pickaxe_jt;stand ghost miner pickaxe
;dwarf;work;standing;work_dwarf:stand_md_hammering_jt;stand hammering
;dwarf;work;standing;work_dwarf:stand_md_miner_pickaxe_jt;stand miner pickaxe
;dwarf;work;standing;work_dwarf:stand_mwd_picking_herbs_jt;stand picking herbs
;dwarf;work;standing;work_dwarf:stand_mwd_picking_herbs_dynamic_jt;stand picking herbs dynamic
;dwarf;work;standing;work_dwarf:stand_md_sharpening_sword_jt;stand sharpening sword
;dwarf;;;work_dwarf:stand_md_party_jt;stand party
;man;dining;sitting;dining_man:drink_sit_jt;drink sit
;man;dining;sitting;dining_man:q206_sit_table_dining;q206 sit table dining
;man;dining;sitting;dining_man:q701_sit_m_eating_pasztet_jt;q701 sit eating pasztet
;man;dining;sitting;dining_man:sit_mwd_dining_loud_jt;sit dining loud
;man;dining;sitting;dining_man:sit_mwd_drinking_loud_jt;sit drinking loud
;man;dining;sitting;dining_man:sit_m_eating_fish_jt;sit eating fish
;man;dining;sitting;dining_man:sit_table_bench_01;sit table bench 01
;man;dining;sitting;dining_man:sit_table_bench_02;sit table bench 02
;man;dining;sitting;dining_man:sit_table_bench_03;sit table bench 03
;man;dining;sitting;dining_man:sit_table_bench_04;sit table bench 04
;man;dining;sitting;dining_man:sit_table_dining_bench_01;sit table dining bench 01
;man;dining;sitting;dining_man:sit_table_dining_bench_02;sit table dining bench 02
;man;dining;sitting;dining_man:sit_table_dining_bench_03;sit table dining bench 03
;man;dining;sitting;dining_man:sit_table_dining_bench_04;sit table dining bench 04
;man;dining;sitting;dining_man:sit_table_dining_stool_01;sit table dining stool 01
;man;dining;sitting;dining_man:sit_table_dining_stool_02;sit table dining stool 02
;man;dining;sitting;dining_man:sit_table_dining_stool_03;sit table dining stool 03
;man;dining;sitting;dining_man:sit_table_dining_stool_04;sit table dining stool 04
;man;dining;sitting;dining_man:sit_table_drinking_bench_01;sit table drinking bench 01
;man;dining;sitting;dining_man:sit_table_drinking_bench_02;sit table drinking bench 02
;man;dining;sitting;dining_man:sit_table_drinking_bench_03;sit table drinking bench 03
;man;dining;sitting;dining_man:sit_table_drinking_bench_04;sit table drinking bench 04
;man;dining;sitting;dining_man:sit_table_drinking_stool_01;sit table drinking stool 01
;man;dining;sitting;dining_man:sit_table_drinking_stool_02;sit table drinking stool 02
;man;dining;sitting;dining_man:sit_table_drinking_stool_03;sit table drinking stool 03
;man;dining;sitting;dining_man:sit_table_drinking_stool_04;sit table drinking stool 04
;man;dining;sitting;dining_man:sit_table_drinking_without_sleeping;sit table drinking without sleeping
;man;dining;sitting;resting_man:sit_table_sleeping;sit table sleeping
;man;dining;sitting;ep2_man:sit_m_table_tasting_wine_left_jt;sit table tasting wine left
;man;dining;sitting;ep2_man:sit_m_table_tasting_wine_right_jt;sit table tasting wine right
;man;dining;;dining_man:kneel_mw_eating_from_ground_jt;kneel eating from ground
;man;dining;;dining_man:q202_drink_sulking;q202 drink sulking
;man;dining;;dining_man:q202_navigator_drink;q202 navigator drink
;man;dining;;dining_man:q203_udalryk_drinking01;q203 udalryk drinking01
;man;dining;;dining_man:q203_udalryk_drinking02;q203 udalryk drinking02
;man;dining;;dining_man:q203_udalryk_drinking03;q203 udalryk drinking03
;man;dining;;dining_man:q203_udalryk_drinking04;q203 udalryk drinking04
;man;dining;;work_man:stand_mw_drinking_jt;stand drinking
;man;dining;;work_man:standing_eating_jt;standing eating
;man;emotional;kneeling;work_man:kneel_m_begging_mercy_jt;kneel begging mercy
;man;emotional;kneeling;work_man:kneel_m_cowering_01_jt;kneel cowering 01
;man;emotional;kneeling;work_man:kneel_m_cowering_02_jt;kneel cowering 02
;man;emotional;kneeling;work_man:kneel_m_cowering_03_jt;kneel cowering 03
;man;emotional;kneeling;work_man:kneel_m_cowering_04_jt;kneel cowering 04
;man;emotional;kneeling;work_man:kneel_m_pain_jt;kneel pain
;man;emotional;sitting;work_man:sit_mw_devastated_jt;sit devastated
;man;emotional;sitting;work_man:sit_mw_devastated_concious_jt;sit devastated concious
;man;emotional;sitting;work_man:sit_mw_devastated_dress_jt;sit devastated dress
;man;emotional;sitting;work_man:sit_mw_devastated_interactive_jt;sit devastated interactive
;man;emotional;sitting;work_man:sit_m_ground_wounded_01_jt;sit ground wounded 01
;man;emotional;sitting;work_man:sit_m_ground_wounded_02_jt;sit ground wounded 02
;man;emotional;standing;work_man:stand_m_angry_jt;stand angry
;man;emotional;standing;work_man:stand_mwdc_bored_jt;stand bored
;man;emotional;standing;work_man:stand_mwdc_bored_jt_short;stand bored short
;man;emotional;standing;work_man:stand_mw_cheering_loud_jt;stand cheering loud
;man;emotional;standing;work_man:stand_mw_cheering_simple_jt;stand cheering simple
;man;emotional;standing;work_man:stand_mw_clapping_hands_jt;stand clapping hands
;man;emotional;standing;work_man:stand_m_cowering_01_jt;stand cowering 01
;man;emotional;standing;work_man:stand_m_cowering_02_jt;stand cowering 02
;man;emotional;standing;work_man:stand_m_cowering_03_jt;stand cowering 03
;man;emotional;standing;work_man:stand_mw_crying_jt;stand crying
;man;emotional;standing;work_man:stand_m_crying_ap;stand crying ap
;man;emotional;standing;ep1_folk:stand_mw_dancing_folk_jt;stand dancing folk
;man;emotional;standing;work_man:stand_mw_dancing_sexy_jt;stand dancing sexy
;man;emotional;standing;work_man:stand_mw_discussing_jt;stand discussing
;man;emotional;standing;work_man:stand_mw_flirt_prostitute_jt;stand flirt prostitute
;man;emotional;standing;work_man:stand_mw_lost_in_thoughts_jt;stand lost in thoughts
;man;emotional;standing;work_man:stand_mw_negative_attitude_jt;stand negative attitude
;man;emotional;standing;work_man:stand_mw_sad_jt;stand sad
;man;emotional;standing;work_man:stand_mw_scared_jt;stand scared
;man;emotional;standing;work_man:stand_mw_tired_jt;stand tired
;man;emotional;standing;work_man:stand_mw_tossing_coins_02_ik_jt;stand tossing coins 02 ik
;man;emotional;standing;work_man:stand_mw_upset_jt;stand upset
;man;emotional;;work_man:lie_m_sex;lie sex
;man;guarding;;guarding:stand_m_block_halberd_l_jt;stand block halberd l
;man;guarding;;guarding:stand_m_block_halberd_r_jt;stand block halberd r
;man;guarding;;guarding:stand_m_captive_bound_jt;stand captive bound
;man;guarding;;guarding:stand_m_captured_stocks_jt;stand captured stocks
;man;guarding;;guarding:stand_md_guard_axe_jt;stand guard axe
;man;guarding;;guarding:stand_mw_guard_bow_jt;stand guard bow
;man;guarding;;guarding:stand_m_guard_crossbow_jt;stand guard crossbow
;man;guarding;;guarding:stand_m_guard_halberd_l_attention_jt;stand guard halberd l attention
;man;guarding;;guarding:stand_m_guard_halberd_l_attention_no_reaction_jt;stand guard halberd l attention no reaction
;man;guarding;;guarding:stand_m_guard_halberd_l_short_jt;stand guard halberd l short
;man;guarding;;guarding:stand_m_guard_halberd_l_sleep_jt;stand guard halberd l sleep
;man;guarding;;guarding:stand_m_guard_halberd_r_attention_jt;stand guard halberd r attention
;man;guarding;;guarding:stand_m_guard_halberd_r_short_jt;stand guard halberd r short
;man;guarding;;guarding:stand_m_guard_halberd_r_sleep_jt;stand guard halberd r sleep
;man;guarding;;guarding:stand_m_guard_halberd_r_sleep_no_reaction_jt;stand guard halberd r sleep no reaction
;man;guarding;;guarding:stand_m_guard_shield_jt;stand guard shield
;man;guarding;;guarding:stand_m_guard_spear_r_jt;stand guard spear r
;man;guarding;;guarding:stand_md_guard_sword_jt;stand guard sword
;man;guarding;;guarding:stand_md_guarding_entrance_jt;stand guarding entrance
;man;guarding;;guarding:stand_m_halting_jt;stand halting
;man;guarding;;guarding:stand_mw_looking_around_jt;stand looking around
;man;guarding;;guarding:stand_mw_looking_down_jt;stand looking down
;man;guarding;;guarding:stand_m_oillamp_jt;stand oillamp
;man;guarding;;guarding:stand_m_spyglass_jt;stand spyglass
;man;guarding;;guarding:stand_m_taunt_sword_jt;stand taunt sword
;man;guarding;;guarding:stand_m_torch_jt;stand torch
;man;household;;household_man:cooking_no_collision;cooking no collision
;man;household;;household_man:kneel_mw_brushing_floor_jt;kneel brushing floor
;man;household;;household_man:q101_barkeep_ap;q101 barkeep ap
;man;household;;household_man:q301_thug_leaning_fwd;q301 thug leaning fwd
;man;household;;household_man:sit_m_ground_sewing_jt;sit ground sewing
;man;household;;household_man:sq301_fat_man_eating;sq301 fat man eating
;man;household;;household_man:stand_mw_chopping_vegetables_jt;stand chopping vegetables
;man;household;;household_man:stand_mw_cleaning_carpet_jt;stand cleaning carpet
;man;household;;household_man:stand_mw_cleaning_carpet_static_jt;stand cleaning carpet static
;man;household;;household_man:stand_mw_cleaning_mug_jt;stand cleaning mug
;man;household;;household_man:stand_mw_cooking_jt;stand cooking
;man;household;;household_man:stand_mw_cooking_jt_perfume;stand cooking perfume
;man;household;;household_man:stand_mw_cooking_rat_jt;stand cooking rat
;man;household;;household_man:stand_m_sweeping_floor_jt;stand sweeping floor
;man;marketplace;;work_man:sit_m_ground_beggar_jt;sit ground beggar
;man;marketplace;;work_man:sit_m_ground_beggar_jt_cart;sit ground beggar cart
;man;marketplace;;work_man:stand_m_counting_money_jt;stand counting money
;man;marketplace;;work_man:stand_mwd_greeting_casual_jt;stand greeting casual
;man;marketplace;;work_man:stand_mwd_greeting_official_jt;stand greeting official
;man;marketplace;;household_man:stand_mwd_looking_at_goods_jt;stand looking at goods
;man;marketplace;;household_man:stand_mwd_looking_at_goods_short_jt;stand looking at goods short
;man;marketplace;;work_man:stand_m_reading_noticeboard_jt;stand reading noticeboard
;man;marketplace;;work_man:stand_m_reading_noticeboard_short_jt;stand reading noticeboard short
;man;marketplace;;default_man:stand_mw_talking_cheerful_jt;stand talking cheerful
;man;marketplace;;default_man:stand_mw_talking_sad_jt;stand talking sad
;man;marketplace;;work_man:stand_mw_tossing_coins_01_jt;stand tossing coins 01
;man;marketplace;;work_man:stand_mw_tossing_coins_02_jt;stand tossing coins 02
;man;quest;;work_man:bob_sq107_cowering_jt;bob sq107 cowering
;man;quest;;ep2_drinking:drunken_sit_jt;drunken sit
;man;quest;;work_man:kneel_m_check_injured_leg_jt;kneel check injured leg
;man;quest;;work_man:kneel_m_pain_conscious_jt;kneel pain conscious
;man;quest;;quest_man:lie_mw_ground_drunk_concious_jt;lie ground drunk concious
;man;quest;;quest_man:lie_mw_ground_drunk_jt_reactions;lie ground drunk reactions
;man;quest;;ep1_quest:m_beheading_attacker_jt;m beheading attacker
;man;quest;;ep1_quest:m_beheading_victim_jt;m beheading victim
;man;quest;;guarding:mq1003_looking_around_short;mq1003 looking around short
;man;quest;;dialog_sitting_ground_man:mq1036_man_tied_up_jt;mq1036 man tied up
;man;quest;;work_man:mq2018_bandit_provoking_jt;mq2018 bandit provoking
;man;quest;;work_man:mq2018_bandit_provoking_b_jt;mq2018 bandit provoking b
;man;quest;;work_man:mq2018_bandit_provoking_c_jt;mq2018 bandit provoking c
;man;quest;;quest_man:mq2018_man_pounding_at_door_jt;mq2018 man pounding at door
;man;quest;;quest_man:mq2039_druid_attacked_by_bees;mq2039 druid attacked by bees
;man;quest;;work_man:mq2039_druid_pray_ground;mq2039 druid pray ground
;man;quest;;quest_man:mq2045_prisoner_jt;mq2045 prisoner
;man;quest;;work_man:mq2049_attacker;mq2049 attacker
;man;quest;;quest_man:mq3026_vegelbud_champion_devastated;mq3026 vegelbud champion devastated
;man;quest;;quest_man:mq3037_tomb_raider_confused;mq3037 tomb raider confused
;man;quest;;work_man:mq6004_jt_boxes;mq6004 boxes
;man;quest;;work_man:mq6004_jt_writing;mq6004 writing
;man;quest;;work_man:mq7004_jt_kneeling_concerned;mq7004 kneeling concerned
;man;quest;;ep2_man:mq7006_sit_m_meditate_jt;mq7006 sit meditate
;man;quest;;work_man:mq7007_sit_mw_devastated_jt;mq7007 sit devastated
;man;quest;;ep2_man:mq7007_stand_m_reading_book_jt;mq7007 stand reading book
;man;quest;;ep2_man:mq7007_warrior_statue_jt;mq7007 warrior statue
;man;quest;;ep2_man:mq7007_warrior_statue_new_l_jt;mq7007 warrior statue new l
;man;quest;;ep2_man:mq7007_warrior_statue_new_r_jt;mq7007 warrior statue new r
;man;quest;;work_man:mq7009_painter_on_market_jt;mq7009 painter on market
;man;quest;;work_man:mq7011_man_on_stairs_jt;mq7011 man on stairs
;man;quest;;work_man:mq7015_caretaker_fixing_jt;mq7015 caretaker fixing
;man;quest;;work_man:mq7018_inspecting_jt;mq7018 inspecting
;man;quest;;work_man:mq7021_sit_m_ground_wounded_01_jt;mq7021 sit ground wounded 01
;man;quest;;idle_man:mq7024_stand_hands_behind_jt;mq7024 stand hands behind
;man;quest;;work_man:poi_pleg_01_jt;poi pleg 01
;man;quest;;work_man:q001_vesemir_sharpening_sword_jt;q001 vesemir sharpening sword
;man;quest;;work_man:q002_ambassador_var_attre_jt;q002 ambassador var attre
;man;quest;;quest_man:q101_hit_bell;q101 hit bell
;man;quest;;quest_man:q101_point_right;q101 point right
;man;quest;;work_man:q101_survivor_devastated;q101 survivor devastated
;man;quest;;quest_man:q101_waving_torch;q101 waving torch
;man;quest;;dialog_kneel_man:q103_blood_ritual_jt;q103 blood ritual
;man;quest;;work_man:q107_graden_search_hut;q107 graden search hut
;man;quest;;work_man:q107_sergeant_sit_sharp;q107 sergeant sit sharp
;man;quest;;work_man:q107_treasure_son_ground;q107 treasure son ground
;man;quest;;work_man:q111_sabath_waiting_man;q111 sabath waiting man
;man;quest;;work_man:q202_crach_at_walls_jt;q202 crach at walls
;man;quest;;archer_man:q202_folan_shooting_fake;q202 folan shooting fake
;man;quest;;quest_man:q202_hjalmar_in_cage_jt;q202 hjalmar in cage
;man;quest;;quest_man:q202_vigi_injured_jt;q202 vigi injured
;man;quest;;quest_man:q202_vs_bandits_injured_father_jt;q202 vs bandits injured father
;man;quest;;work_man:q203_ap_mousesack_angry;q203 ap mousesack angry
;man;quest;;work_man:q203_eirik_scared;q203 eirik scared
;man;quest;;quest_man:q203_udalryk_devastated;q203 udalryk devastated
;man;quest;;archer_man:q205_archer_shooting_singular;q205 archer shooting singular
;man;quest;;quest_man:q208_hjalmar_king;q208 hjalmar king
;man;quest;;quest_man:q208_hjort_calming_udalryk;q208 hjort calming udalryk
;man;quest;;work_man:q208_man_cheering_happy;q208 man cheering happy
;man;quest;;work_woman:q208_man_cheering_happy;q208 man cheering happy
;man;quest;;work_man:q208_man_cheering_short;q208 man cheering short
;man;quest;;quest_man:q208_man_standing_eating;q208 man standing eating
;man;quest;;quest_man:q208_standing_on_toes;q208 standing on toes
;man;quest;;quest_man:q208_udalryk_crazy;q208 udalryk crazy
;man;quest;;work_man:q208_warrior_cheer_aft_coronation;q208 warrior cheer aft coronation
;man;quest;;quest_man:q210_avallach_holds_spell;q210 avallach holds spell
;man;quest;;work_man:q301_thief_give_loot;q301 thief give loot
;man;quest;;work_man:q301_thief_knock_door;q301 thief knock door
;man;quest;;work_man:q301_thief_rob;q301 thief rob
;man;quest;;idle_man:q302_eunuch_stands_arms_behind;q302 eunuch stands arms behind
;man;quest;;quest_man:q302_man_arguing;q302 man arguing
;man;quest;;quest_man:q302_thug_shows_behind;q302 thug shows behind
;man;quest;;quest_man:q305_audience_theatre_only_bravo;q305 audience theatre only bravo
;man;quest;;guarding:q305_bandits_barricade_talk;q305 bandits barricade talk
;man;quest;;quest_man:q305_bow_short_man;q305 bow short man
;man;quest;;quest_man:q305_bow_short_man_fancy;q305 bow short man fancy
;man;quest;;quest_man:q305_dandelion_outside_house;q305 dandelion outside house
;man;quest;;quest_man:q305_dandelion_sitting_tied;q305 dandelion sitting tied
;man;quest;;quest_man:q305_man_showing_left;q305 man showing left
;man;quest;;quest_man:q305_thug_announces_in_docks;q305 thug announces in docks
;man;quest;;quest_man:q305_thug_in_park;q305 thug in park
;man;quest;;quest_man:q305_thug_stretching_muscles;q305 thug stretching muscles
;man;quest;;quest_man:q305_thug_stretching_muscles_short;q305 thug stretching muscles short
;man;quest;;quest_man:q305_thugs_victim_ap;q305 thugs victim ap
;man;quest;;work_man:q308_burn_things;q308 burn things
;man;quest;;quest_man:q308_coroner_leaning;q308 coroner leaning
;man;quest;;work_man:q308_inspect_body;q308 inspect body
;man;quest;;quest_man:q309_crouch_man;q309 crouch man
;man;quest;;quest_man:q309_landlord_in_triss_room;q309 landlord in triss room
;man;quest;;quest_man:q309_mage_lying_ground;q309 mage lying ground
;man;quest;;quest_man:q309_mage_sitting_devastated;q309 mage sitting devastated
;man;quest;;work_man:q309_mages_landlady_crying;q309 mages landlady crying
;man;quest;;work_man:q309_mages_landlord_cowering;q309 mages landlord cowering
;man;quest;;quest_man:q309_man_boo;q309 man boo
;man;quest;;quest_man:q309_man_on_steak;q309 man on steak
;man;quest;;quest_man:q309_olivier_interrogated_ground;q309 olivier interrogated ground
;man;quest;;quest_man:q309_standing_with_fan;q309 standing with fan
;man;quest;;quest_man:q309_thug_to_beggar;q309 thug to beggar
;man;quest;;quest_man:q309_wh_badlu_injured;q309 wh badlu injured
;man;quest;;quest_man:q309_wh_book_to_fire;q309 wh book to fire
;man;quest;;quest_man:q309_wh_book_to_fire_no_heat;q309 wh book to fire no heat
;man;quest;;quest_man:q309_wh_kicking_lying_guy;q309 wh kicking lying guy
;man;quest;;quest_man:q309_wh_looking_far;q309 wh looking far
;man;quest;;quest_man:q309_wh_wounded_sleeps;q309 wh wounded sleeps
;man;quest;;quest_man:q311_avallach_idle;q311 avallach idle
;man;quest;;quest_man:q311_avallach_looking_at_things;q311 avallach looking at things
;man;quest;;quest_man:q311_avallach_shows;q311 avallach shows
;man;quest;;quest_man:q311_avallach_watching_pictures;q311 avallach watching pictures
;man;quest;;quest_man:q311_come_on;q311 come on
;man;quest;;quest_man:q311_geels_painting;q311 geels painting
;man;quest;;quest_man:q505_drilling_men;q505 drilling men
;man;quest;;quest_man:q505_emhyr_looking_window;q505 emhyr looking window
;man;quest;;quest_man:q505_emhyr_lost_in_thoughts;q505 emhyr lost in thoughts
;man;quest;;quest_man:q505_herold_announcing;q505 herold announcing
;man;quest;;quest_man:q505_leaning_map;q505 leaning map
;man;quest;;quest_man:q505_leaning_map_emhyr;q505 leaning map emhyr
;man;quest;;quest_man:q505_loot_to_cart;q505 loot to cart
;man;quest;;quest_man:q505_man_nervous;q505 man nervous
;man;quest;;quest_man:q505_man_talking_to_lover;q505 man talking to lover
;man;quest;;work_man:q505_officer_sit_writing;q505 officer sit writing
;man;quest;;quest_man:q505_pee_on_cart;q505 pee on cart
;man;quest;;quest_man:q505_point_back;q505 point back
;man;quest;;quest_man:q505_shows_his_neighbour;q505 shows his neighbour
;man;quest;;idle_man:q505_soldier_stands;q505 soldier stands
;man;quest;;idle_man:q505_soldier_stands_short;q505 soldier stands short
;man;quest;;quest_man:q505_standing_proud;q505 standing proud
;man;quest;;quest_man:q505_villager_queue_impatient;q505 villager queue impatient
;man;quest;;quest_man:q505_wh_looking_lean_forward;q505 wh looking lean forward
;man;quest;;ep1_quest_flowers:q602_crouch_w_pick_flowers_jt;q602 crouch pick flowers
;man;quest;;quest_man:q602_kicking_barrel;q602 kicking barrel
;man;quest;;work_man:q603_ewald_looking_at_map;q603 ewald looking at map
;man;quest;;ep1_quest:q604_brother_sit_dinner;q604 brother sit dinner
;man;quest;;ep1_quest:q604_father_contract;q604 father contract
;man;quest;;ep1_quest:q604_father_sit_dinner;q604 father sit dinner
;man;quest;;ep1_quest:q604_olg_opening_door;q604 olg opening door
;man;quest;;ep1_quest:q604_olg_posing;q604 olg posing
;man;quest;;ep1_quest:q604_olg_reading_book;q604 olg reading book
;man;quest;;ep1_quest:q604_olg_shows_caretaker;q604 olg shows caretaker
;man;quest;;ep1_quest:q604_olg_sit_dinner;q604 olg sit dinner
;man;quest;;ep1_quest:q604_olg_sit_drink;q604 olg sit drink
;man;quest;;ep1_quest:q604_olg_wash_hands;q604 olg wash hands
;man;quest;;work_man:q605_sit_m_bandit_01_jt;q605 sit bandit 01
;man;quest;;combat_man:q701_lying_m_ground_jt;q701 lying ground
;man;quest;;ep2_man:q701_nobleman_angry_jt;q701 nobleman angry
;man;quest;;work_man:q701_puma_tamer_show_jt;q701 puma tamer show
;man;quest;;work_man:q701_sit_mw_devastated_conscious_jt;q701 sit devastated conscious
;man;quest;;dialog_sitting_ground_man:q701_sit_m_ground_pwned_jt;q701 sit ground pwned
;man;quest;;work_man:q701_stand_child_crying_jt;q701 stand child crying
;man;quest;;work_man:q701_stand_mw_crying_concious_jt;q701 stand crying concious
;man;quest;;ep2_man_dialog_animation:q701_stand_m_guard_halberd_taunting_jt;q701 stand guard halberd taunting
;man;quest;;work_man:q703_mandragora_sculpturer_jt;q703 mandragora sculpturer
;man;quest;;ep2_man:q703_mandragora_thinking_jt;q703 mandragora thinking
;man;quest;;quest_man:q703_waving_torch;q703 waving torch
;man;quest;;halberd:q704_m_halberd_taunt_jt;q704 halberd taunt
;man;quest;;idle_man:q704_kicking_vampire_jt;q704 kicking vampire
;man;quest;;quest_man:q704_kicking_vampire_jt;q704 kicking vampire
;man;quest;;work_man:q704_kicking_vampire_jt;q704 kicking vampire
;man;quest;;work_man:q704_kneel_m_cowering_03_conscious_jt;q704 kneel cowering 03 conscious
;man;quest;;work_man:q704_kneel_m_cowering_conscious_02_jt;q704 kneel cowering conscious 02
;man;quest;;shield:q704_m_shield_defence_jt;q704 shield defence
;man;quest;;work_man:q705_damien_sad_jt;q705 damien sad
;man;quest;;work_man:q705_dandelion_lute_jt;q705 dandelion lute
;man;quest;;work_man:q705_jt_hands_on_back;q705 hands on back
;man;quest;;dialog_sitting_ground_man:q705_jt_sit_ground_captive;q705 sit ground captive
;man;quest;;work_man:regis_brewing_jt;regis brewing
;man;quest;;work_man:sit_mwd_chair_ignore_collision_jt;sit chair ignore collision
;man;quest;;ep1_quest:sit_m_couch_jt;sit couch
;man;quest;;work_man:sit_mw_devastated_interactable_jt;sit devastated interactable
;man;quest;;mq7021_man:sit_m_pain_conscious_jt;sit pain conscious
;man;quest;;quest_man:sq102_ludvik_dying;sq102 ludvik dying
;man;quest;;combat_man:sq102_man_dead_jt;sq102 man dead
;man;quest;;lying_man:sq102_man_dead_arms_along_body_jt;sq102 man dead arms along body
;man;quest;;combat_man:sq102_man_dead_on_belly_jt;sq102 man dead on belly
;man;quest;;lying_man:sq102_man_dead_on_side_jt;sq102 man dead on side
;man;quest;;combat_man:sq102_man_dead_sitting_up;sq102 man dead sitting up
;man;quest;;quest_man:sq106_at_sword_point;sq106 at sword point
;man;quest;;work_man:sq107_uncursed;sq107 uncursed
;man;quest;;work_man:sq204_harald_stand_grave;sq204 harald stand grave
;man;quest;;work_man:sq205_druid_calling_storm_noentry_jt;sq205 druid calling storm noentry
;man;quest;;lying_man:sq209_jorund_dead_jt;sq209 jorund dead
;man;quest;;work_man:sq210_man_calling;sq210 man calling
;man;quest;;quest_man:sq301_albert_talking_to_ladies;sq301 albert talking to ladies
;man;quest;;quest_man:sq301_looking_around_single;sq301 looking around single
;man;quest;;quest_man:sq301_man_bathing_fountain;sq301 man bathing fountain
;man;quest;;quest_man:sq301_man_in_fountain_proud;sq301 man in fountain proud
;man;quest;;quest_man:sq301_man_party_holding_mask;sq301 man party holding mask
;man;quest;;quest_man:sq301_man_toast;sq301 man toast
;man;quest;;quest_man:sq301_servant_on_market;sq301 servant on market
;man;quest;;quest_man:sq301_wh_observing_leaning_wall;sq301 wh observing leaning wall
;man;quest;;quest_man:sq701_injured_jt;sq701 injured
;man;quest;;quest_man:sq701_point_left_jt;sq701 point left
;man;quest;;work_man:sq701_stand_m_plough_yourself_jt;sq701 stand plough yourself
;man;quest;;work_man:sq701_stand_m_wave_jt;sq701 stand wave
;man;quest;;work_man:sq701_stand_m_wave_constantly_jt;sq701 stand wave constantly
;man;quest;;work_man:stand_m_crying_ap_copy;stand crying ap copy
;man;quest;;work_man:stand_mw_crying_i_jt;stand crying i
;man;quest;;work_man:stand_mw_crying_interrupt_jt;stand crying interrupt
;man;quest;;work_man:stand_mwd_looking_in_direction_jt;stand looking in direction
;man;quest;;guarding:stand_m_taunt_sword_jt_copy;stand taunt sword copy
;man;quest;;ep1_quest:stand_m_toast_jt;stand toast
;man;rain;;rain_shelter_man:rain_kneel_m_squat_jt;rain kneel squat
;man;rain;;rain_shelter_man:rain_sit_m_ground_beggar_jt;rain sit ground beggar
;man;rain;;rain_shelter_man:rain_stand_m_bandit_01_jt;rain stand bandit 01
;man;rain;;rain_shelter_man:rain_stand_m_bandit_02_jt;rain stand bandit 02
;man;rain;;rain_shelter_man:rain_stand_m_hopeless_jt;rain stand hopeless
;man;rain;;rain_shelter_man:rain_stand_m_nervous_jt;rain stand nervous
;man;rain;;rain_shelter_man:rain_stand_m_picking_teeth_jt;rain stand picking teeth
;man;rain;;rain_shelter_man:rain_stand_m_reading_noticeboard_jt;rain stand reading noticeboard
;man;rain;;rain_shelter_man:rain_stand_m_scratching_jt;rain stand scratching
;man;rain;;rain_shelter_man:rain_stand_m_spit_jt;rain stand spit
;man;rain;;rain_shelter_man:rain_stand_m_torch_jt;rain stand torch
;man;rain;;rain_shelter_man:rain_stand_m_warming_up_jt;rain stand warming up
;man;rain;;ep2_man:stand_m_rain_jt;stand rain
;man;resting;kneeling;resting_man:kneel_mw_crouch_jt;kneel crouch
;man;resting;kneeling;resting_man:kneel_m_crouch_short_jt;kneel crouch short
;man;resting;kneeling;resting_man:kneel_m_squat_jt;kneel squat
;man;resting;kneeling;work_man:kneel_mw_unconscious_jt;kneel unconscious
;man;resting;sitting;resting_man:mq7009_jt_sit_picnic;mq7009 sit picnic
;man;resting;sitting;resting_man:q001_vesemir_chair_sit_sleep_jt;q001 vesemir chair sit sleep
;man;resting;sitting;resting_man:q106_chair_sit_ghost_no_pre_jt;q106 chair sit ghost no pre
;man;resting;sitting;resting_man:q604_ethereal_sit_roof;q604 ethereal sit roof
;man;resting;sitting;resting_man:q605_sit_m_bandit_01_jt;q605 sit bandit 01
;man;resting;sitting;resting_man:sit_m_bandit_01_jt;sit bandit 01
;man;resting;sitting;work_man:sit_m_bandit_01_jt;sit bandit 01
;man;resting;sitting;resting_man:sit_m_bandit_01_dress_jt;sit bandit 01 dress
;man;resting;sitting;work_man:sit_m_bandit_01_dress_jt;sit bandit 01 dress
;man;resting;sitting;resting_man:sit_m_bandit_02_jt;sit bandit 02
;man;resting;sitting;resting_man:sit_mw_bath_jt;sit bath
;man;resting;sitting;resting_man:sit_mwd_bench_jt;sit bench
;man;resting;sitting;resting_man:sit_m_bench_behind_jt;sit bench behind
;man;resting;sitting;resting_man:sit_m_bored_jt;sit bored
;man;resting;sitting;resting_man:sit_mwd_chair_jt;sit chair
;man;resting;sitting;work_man:sit_mwd_chair_jt;sit chair
;man;resting;sitting;resting_man:sit_m_chair_backwards_jt;sit chair backwards
;man;resting;sitting;resting_man:sit_m_chair_chess_player2;sit chair chess player2
;man;resting;sitting;resting_man:sit_m_chair_chess_player3;sit chair chess player3
;man;resting;sitting;resting_man:sit_mwd_chair_ignore_collision_jt;sit chair ignore collision
;man;resting;sitting;resting_man:sit_m_defeated_jt;sit defeated
;man;resting;sitting;resting_man:sit_m_determined_jt;sit determined
;man;resting;sitting;resting_man:sit_m_ground_01_jt;sit ground 01
;man;resting;sitting;resting_man:sit_m_ground_02_jt;sit ground 02
;man;resting;sitting;dining_man:sit_mw_ground_hopeless_jt;sit ground hopeless
;man;resting;sitting;resting_man:sit_mw_ground_hopeless_jt;sit ground hopeless
;man;resting;sitting;resting_man:sit_m_ground_leaning_jt;sit ground leaning
;man;resting;sitting;resting_man:sit_mw_ground_lock_jt;sit ground lock
;man;resting;sitting;resting_man:sit_mw_ground_sick_jt;sit ground sick
;man;resting;sitting;resting_man:sit_m_ground_smoking_jt;sit ground smoking
;man;resting;sitting;resting_man:sit_mw_ground_warming_up_jt;sit ground warming up
;man;resting;sitting;man_meditation:sit_m_meditate_jt;sit meditate
;man;resting;sitting;resting_man:sit_m_observing_jt;sit observing
;man;resting;sitting;resting_man:sit_m_on_fence_jt;sit on fence
;man;resting;sitting;resting_man:sit_m_on_table_jt;sit on table
;man;resting;sitting;resting_man:sit_m_on_throne_jt;sit on throne
;man;resting;sitting;resting_man:sit_m_pier_jt;sit pier
;man;resting;sitting;resting_man:sit_md_playing_cards_01_jt;sit playing cards 01
;man;resting;sitting;resting_man:sit_md_playing_cards_02_jt;sit playing cards 02
;man;resting;sitting;resting_man:sit_md_playing_cards_03_jt;sit playing cards 03
;man;resting;sitting;resting_man:sit_mw_playing_dice_01_jt;sit playing dice 01
;man;resting;sitting;resting_man:sit_mw_playing_dice_02_jt;sit playing dice 02
;man;resting;sitting;resting_man:sit_m_playing_knife_jt;sit playing knife
;man;resting;sitting;resting_man:sit_m_relaxed_jt;sit relaxed
;man;resting;sitting;resting_man:sit_mw_sleeping_jt;sit sleeping
;man;resting;sitting;resting_man:sit_mw_sleeping_awake_jt;sit sleeping awake
;man;resting;sitting;resting_man:sit_md_smoking_jt;sit smoking
;man;resting;sitting;resting_man:sit_md_smoking_dress_jt;sit smoking dress
;man;resting;sitting;resting_man:sit_m_smoking_relaxed_jt;sit smoking relaxed
;man;resting;sitting;resting_man:sit_m_waiting_jt;sit waiting
;man;resting;standing;resting_man:q703_stand_mw_sightseeing_dynamic_jt;q703 stand sightseeing dynamic
;man;resting;standing;resting_man:stand_mw_adjusting_clothes_jt;stand adjusting clothes
;man;resting;standing;resting_man:stand_mwd_arms_crossed_jt;stand arms crossed
;man;resting;standing;resting_man:stand_mwd_arms_crossed_short_jt;stand arms crossed short
;man;resting;standing;resting_man:stand_m_bandit_01_jt;stand bandit 01
;man;resting;standing;resting_man:stand_m_bandit_02_jt;stand bandit 02
;man;resting;standing;resting_man:stand_m_chauffer_01_jt;stand chauffer 01
;man;resting;standing;resting_man:stand_m_chauffer_02_jt;stand chauffer 02
;man;resting;standing;resting_man:stand_mw_coughing_jt;stand coughing
;man;resting;standing;resting_man:stand_mw_hopeless_jt;stand hopeless
;man;resting;standing;idle_man:stand_mwdc_idle_jt;stand idle
;man;resting;standing;idle_man:stand_mwdc_idle_short_jt;stand idle short
;man;resting;standing;resting_man:stand_mw_nervous_jt;stand nervous
;man;resting;standing;resting_man:stand_m_peeing_jt;stand peeing
;man;resting;standing;resting_man:stand_m_picking_teeth_jt;stand picking teeth
;man;resting;standing;resting_man:stand_md_playing_axe_jt;stand playing axe
;man;resting;standing;resting_man:stand_md_playing_axe_jt_play_loop;stand playing axe play loop
;man;resting;standing;resting_man:stand_m_playing_knife_jt;stand playing knife
;man;resting;standing;household_man:stand_mwd_scratching_jt;stand scratching
;man;resting;standing;resting_man:stand_mwd_scratching_jt;stand scratching
;man;resting;standing;resting_man:stand_mwd_sick_jt;stand sick
;man;resting;standing;resting_man:stand_mw_sightseeing_jt;stand sightseeing
;man;resting;standing;resting_man:stand_mw_sightseeing_dynamic_jt;stand sightseeing dynamic
;man;resting;standing;ep2_man:stand_m_smoking_jt;stand smoking
;man;resting;standing;resting_man:stand_md_spit_jt;stand spit
;man;resting;standing;resting_man:stand_m_taking_fisstech_jt;stand taking fisstech
;man;resting;standing;resting_man:stand_m_warming_up_jt;stand warming up
;man;resting;standing;resting_man:stand_mw_with_fan_jt;stand with fan
;man;resting;;resting_man:dijkstra_in_office;dijkstra in office
;man;resting;;resting_man:lean_mw_fence_on_arms_jt;lean fence on arms
;man;resting;;resting_man:lean_m_fence_on_butt_jt;lean fence on butt
;man;resting;;resting_man:lean_m_wall_back_arms_crossed_jt;lean wall back arms crossed
;man;resting;;resting_man:lean_m_wall_back_hands_hips_jt;lean wall back hands hips
;man;resting;;resting_man:lean_m_wall_back_hands_hips_dynamic_jt;lean wall back hands hips dynamic
;man;resting;;resting_man:lean_m_wall_side_jt;lean wall side
;man;resting;;resting_man:mq3026_audience_mw1;mq3026 audience mw1
;man;resting;;resting_man:mq3026_audience_mw2;mq3026 audience mw2
;man;resting;;resting_man:mq7008_lean_mw_fence_on_arms_no_wave_jt;mq7008 lean fence on arms no wave
;man;resting;;resting_man:mq7009_lookfor_paints_jt;mq7009 lookfor paints
;man;resting;;resting_man:q001_eskel_wall_sitting_jt;q001 eskel wall sitting
;man;resting;;resting_man:q105_smoke_pipe_sitting;q105 smoke pipe sitting
;man;resting;;resting_man:q111_imlerith_throne;q111 imlerith throne
;man;resting;;resting_man:q111_smoke_pipe;q111 smoke pipe
;man;resting;;resting_man:q111_strzegomir_campfire;q111 strzegomir campfire
;man;resting;;resting_man:q202_vs_bandits_crouching_jt;q202 vs bandits crouching
;man;resting;;resting_man:q203_bench_abandoned_house;q203 bench abandoned house
;man;resting;;resting_man:q206_halbjorn_dying;q206 halbjorn dying
;man;resting;;resting_man:q301_man_beaten;q301 man beaten
;man;resting;;resting_man:q302_cards_player;q302 cards player
;man;resting;;resting_man:q305_audience_bench;q305 audience bench
;man;resting;;resting_man:q305_audience_bench2;q305 audience bench2
;man;resting;;resting_man:q308_dudu_at_blankas_side;q308 dudu at blankas side
;man;resting;;resting_man:q309_bottles_merchant_jt;q309 bottles merchant
;man;resting;;resting_man:q504_dandelion_table;q504 dandelion table
;man;resting;;resting_man:q505_ciri_bench;q505 ciri bench
;man;resting;;resting_man:q602_swim_m_jt;q602 swim m
;man;resting;;resting_man:q705_jt_sitting_bored;q705 sitting bored
;man;resting;;idle_man:stands_m_arms_behind_jt;stands arms behind
;man;resting;;idle_man:stands_m_arms_behind_nolookat_jt;stands arms behind nolookat
;man;rude;;rude:lean_m_drunk_wall_jt;lean drunk wall
;man;rude;;quest_man:lie_mw_ground_drunk_jt;lie ground drunk
;man;rude;;rude:sit_md_sleep_drunk_jt;sit sleep drunk
;man;rude;;rude:stand_md_drunk_jt;stand drunk
;man;rude;;rude:stand_m_drunk_ladder_jt;stand drunk ladder
;man;rude;;rude:stand_m_drunk_ladder_onehand_jt;stand drunk ladder onehand
;man;rude;;quest_man:stand_m_drunk_wielding_sword_jt;stand drunk wielding sword
;man;rude;;quest_man:stand_m_drunk_with_torch_jt;stand drunk with torch
;man;rude;;rude:stand_m_puke_jt;stand puke
;man;rude;;rude:stand_md_puke_jt;stand puke
;man;rude;;rude:stand_md_slightly_drunk_jt;stand slightly drunk
;man;rude;;combat_man:stand_m_taunt_right_jt;stand taunt right
;man;rude;;rude:stand_m_throwing_knifes_jt;stand throwing knifes
;man;sleeping;;sleeping_man:lie_mwdc_bed_still_no_mesh_jt;lie bed still no mesh
;man;sleeping;;sleeping_man:lie_mwdc_sleep_bed_l_jt;lie sleep bed l
;man;sleeping;;sleeping_man:lie_mwdc_sleep_bed_l_jt_hospital;lie sleep bed l hospital
;man;sleeping;;sleeping_man:lie_mwdc_sleep_bed_l_new_jt;lie sleep bed l new
;man;sleeping;;sleeping_man:lie_mwdc_sleep_bed_l_new_dress_jt;lie sleep bed l new dress
;man;sleeping;;sleeping_man:lie_mwdc_sleep_bed_r_jt;lie sleep bed r
;man;sleeping;;sleeping_man:lie_mwdc_sleep_bed_r_new_jt;lie sleep bed r new
;man;sleeping;;sleeping_man:lie_mwdc_sleep_bed_r_new_dress_jt;lie sleep bed r new dress
;man;sleeping;;sleeping_man:lie_mwdc_sleep_ground_jt;lie sleep ground
;man;sleeping;;sleeping_man:lie_mwdc_sleep_ground_conscious_jt;lie sleep ground conscious
;man;sleeping;;sleeping_man:lie_mw_sleep_rich_bed_l_new_jt;lie sleep rich bed l new
;man;sleeping;;sleeping_man:lie_mw_sleep_rich_bed_l_new_jt_concious;lie sleep rich bed l new concious
;man;sleeping;;sleeping_man:lie_mw_sleep_rich_bed_l_new_dress_jt;lie sleep rich bed l new dress
;man;sleeping;;sleeping_man:lie_mw_sleep_rich_bed_r_new_jt;lie sleep rich bed r new
;man;sleeping;;sleeping_man:mq2039_druid_sleeps_ground;mq2039 druid sleeps ground
;man;sleeping;;sleeping_man:mq7001_sit_m_sleep_chair;mq7001 sit sleep chair
;man;sleeping;;resting_man:mq7001_sit_table_sleeping;mq7001 sit table sleeping
;man;sleeping;;sleeping_man:mq7002_jt_sleepy_knight;mq7002 sleepy knight
;man;sleeping;;resting_man:q310_sit_mw_sleeping_jt;q310 sit sleeping
;man;sleeping;;sleeping_man:q401_avallach_on_table;q401 avallach on table
;man;sleeping;;sleeping_man:sit_mwd_ground_sleep_jt;sit ground sleep
;man;sleeping;;sleeping_man:sit_m_sleep_chair;sit sleep chair
;man;sleeping;;sleeping_man:sit_m_sleep_chair_copy;sit sleep chair copy
;man;sleeping;;sleeping_man:sleep_bed;sleep bed
;man;sleeping;;sleeping_man:sleep_bed_r;sleep bed r
;man;training;;work_man:q001_lambert_kata_training_jt;q001 lambert kata training
;man;work;kneeling;work_man:kneel_m_caring_sick_jt;kneel caring sick
;man;work;kneeling;work_man:kneel_md_hammering_jt;kneel hammering
;man;work;kneeling;ep2_man:kneel_m_knight_with_sword_jt;kneel knight with sword
;man;work;kneeling;work_man:kneel_m_make_bricks_jt;kneel make bricks
;man;work;kneeling;work_man:kneel_mw_jt;kneel mw
;man;work;kneeling;ep2_man:kneel_m_playing_lute_and_rose_jt;kneel playing lute and rose
;man;work;kneeling;work_man:kneel_m_push_ups_jt;kneel push ups
;man;work;kneeling;work_man:kneel_mw_search_ground_jt;kneel search ground
;man;work;kneeling;work_man:kneel_m_search_ground_basket_jt;kneel search ground basket
;man;work;kneeling;work_man:kneel_m_search_ground_basket_no_eating_jt;kneel search ground basket no eating
;man;work;sitting;ep2_man:sit_m_eating_fancy_left_jt;sit eating fancy left
;man;work;sitting;ep2_man:sit_m_eating_fancy_right_jt;sit eating fancy right
;man;work;sitting;ep2_man:sit_m_flirting_wine_left_jt;sit flirting wine left
;man;work;sitting;ep2_man:sit_m_flirting_wine_right_jt;sit flirting wine right
;man;work;sitting;work_man:sit_m_ground_fishing_jt;sit ground fishing
;man;work;sitting;work_man:sit_mw_milking_cow_jt;sit milking cow
;man;work;sitting;work_man:sit_m_music_flute_jt;sit music flute
;man;work;sitting;work_man:sit_m_painting_jt;sit painting
;man;work;sitting;ep2_man:sit_m_playing_hurdy_gurdy_jt;sit playing hurdy gurdy
;man;work;sitting;ep2_man:sit_m_polishing_barrel_jt;sit polishing barrel
;man;work;sitting;ep2_man:sit_m_polishing_shield_jt;sit polishing shield
;man;work;sitting;work_man:sit_m_potting_jt;sit potting
;man;work;sitting;work_man:sit_mw_praying_ground_jt;sit praying ground
;man;work;sitting;work_man:sit_mw_prostitute_inviting_jt;sit prostitute inviting
;man;work;sitting;work_man:sit_m_reading_book_jt;sit reading book
;man;work;sitting;work_man:sit_m_sharpening_scythe_jt;sit sharpening scythe
;man;work;sitting;work_man:sit_m_sharpening_sword_jt;sit sharpening sword
;man;work;sitting;work_man:sit_m_writing_jt;sit writing
;man;work;standing;ep2_man:stand_m_announcing_jt;stand announcing
;man;work;standing;work_man:stand_m_armorer_fixing_table_jt;stand armorer fixing table
;man;work;standing;work_man:stand_m_armorer_fixing_table_02_jt;stand armorer fixing table 02
;man;work;standing;work_man:stand_m_armorer_fixing_table_03_jt;stand armorer fixing table 03
;man;work;standing;work_man:stand_m_bakingbricks_supervisor_jt;stand bakingbricks supervisor
;man;work;standing;work_man:stand_m_brewing_elixir_jt;stand brewing elixir
;man;work;standing;work_man:stand_mw_brushing_horse_jt;stand brushing horse
;man;work;standing;work_man:stand_m_butcher_jt;stand butcher
;man;work;standing;work_man:stand_mw_casting_jt;stand casting
;man;work;standing;work_man:stand_m_catch_rat_jt;stand catch rat
;man;work;standing;work_man:stand_mw_checking_lice_jt;stand checking lice
;man;work;standing;work_man:stand_md_chopping_tree_jt;stand chopping tree
;man;work;standing;work_man:stand_md_chopping_wood_jt;stand chopping wood
;man;work;standing;work_man:stand_mw_cleaning_wall_jt;stand cleaning wall
;man;work;standing;work_man:stand_m_coloring_clothes_jt;stand coloring clothes
;man;work;standing;ep2_man:stand_m_conducting_dog_jt;stand conducting dog
;man;work;standing;ep2_man:stand_m_cutting_hedges_jt;stand cutting hedges
;man;work;standing;ep2_man:stand_m_dancing_drunk_jt;stand dancing drunk
;man;work;standing;ep2_man:stand_m_dancing_drunk_fancy_jt;stand dancing drunk fancy
;man;work;standing;ep2_man:stand_m_dancing_formal_jt;stand dancing formal
;man;work;standing;ep2_man:stand_m_dancing_formal_dynamic_jt;stand dancing formal dynamic
;man;work;standing;work_man:stand_md_digging_ground_jt;stand digging ground
;man;work;standing;work_man:stand_md_digging_ground_dynamic_jt;stand digging ground dynamic
;man;work;standing;ep2_man:stand_m_duel_insult_jt;stand duel insult
;man;work;standing;ep2_man:stand_m_duel_warmup_1_jt;stand duel warmup 1
;man;work;standing;ep2_man:stand_m_duel_warmup_2_jt;stand duel warmup 2
;man;work;standing;ep2_man:stand_m_duel_warmup_fist_jt;stand duel warmup fist
;man;work;standing;ep2_man:stand_m_eating_baguette_jt;stand eating baguette
;man;work;standing;ep2_man:stand_m_eating_fancy_jt;stand eating fancy
;man;work;standing;ep2_man:stand_m_fancing_training_jt;stand fancing training
;man;work;standing;work_man:stand_mwd_farmer_hoe_jt;stand farmer hoe
;man;work;standing;work_man:stand_mw_field_scythe_jt;stand field scythe
;man;work;standing;work_man:stand_m_fireeater_jt;stand fireeater
;man;work;standing;ep2_man:stand_m_fishing_bob_jt;stand fishing bob
;man;work;standing;ep2_man:stand_m_flirting_jt;stand flirting
;man;work;standing;ep2_man:stand_m_flirting_dynamic_jt;stand flirting dynamic
;man;work;standing;ep2_man:stand_m_flirting_static_jt;stand flirting static
;man;work;standing;work_man:stand_md_forging_sword_jt;stand forging sword
;man;work;standing;work_man:stand_m_generic_work_jt;stand generic work
;man;work;standing;work_man:stand_md_ghost_miner_pickaxe_jt;stand ghost miner pickaxe
;man;work;standing;work_man:stand_mw_gutting_fish_jt;stand gutting fish
;man;work;standing;work_man:stand_md_hammering_jt;stand hammering
;man;work;standing;work_man:stand_m_hammering_wallofbricks_jt;stand hammering wallofbricks
;man;work;standing;work_man:stand_m_heating_fire_jt;stand heating fire
;man;work;standing;work_man:stand_m_heating_fire_worker_jt;stand heating fire worker
;man;work;standing;work_man:stand_m_inspect_cart_jt;stand inspect cart
;man;work;standing;work_man:stand_m_juggler_jt;stand juggler
;man;work;standing;work_man:stand_m_knock_door_jt;stand knock door
;man;work;standing;ep2_man:stand_m_looking_with_torch_jt;stand looking with torch
;man;work;standing;work_man:stand_m_map_jt;stand map
;man;work;standing;work_man:stand_md_miner_pickaxe_jt;stand miner pickaxe
;man;work;standing;work_man:stand_m_music_drums_jt;stand music drums
;man;work;standing;work_man:stand_m_music_drums_drunk_jt;stand music drums drunk
;man;work;standing;work_man:stand_mw_music_fiddle_jt;stand music fiddle
;man;work;standing;work_man:stand_m_music_fiddle_drunk_jt;stand music fiddle drunk
;man;work;standing;work_man:stand_mw_music_flute_jt;stand music flute
;man;work;standing;work_man:stand_m_music_flute_drunk_jt;stand music flute drunk
;man;work;standing;work_man:stand_m_music_lute_jt;stand music lute
;man;work;standing;work_man:stand_m_music_lute_drunk_jt;stand music lute drunk
;man;work;standing;work_man:stand_m_music_lute_nosound_jt;stand music lute nosound
;man;work;standing;work_man:stand_m_operating_crane_jt;stand operating crane
;man;work;standing;ep2_man:stand_m_painting_jt;stand painting
;man;work;standing;work_man:stand_m_painting_jt;stand painting
;man;work;standing;work_man:stand_mw_picking_fruits_jt;stand picking fruits
;man;work;standing;ep2_man:stand_m_picking_grapes_jt;stand picking grapes
;man;work;standing;ep2_man:stand_m_picking_grapes_dynamic_jt;stand picking grapes dynamic
;man;work;standing;work_man:stand_mwd_picking_herbs_jt;stand picking herbs
;man;work;standing;work_man:stand_mwd_picking_herbs_dynamic_jt;stand picking herbs dynamic
;man;work;standing;ep2_man:stand_m_playing_trombone_jt;stand playing trombone
;man;work;standing;work_man:stand_m_polish_jt;stand polish
;man;work;standing;ep2_man:stand_m_posing_mirror_jt;stand posing mirror
;man;work;standing;ep2_man:stand_m_posing_painter_jt;stand posing painter
;man;work;standing;work_man:stand_m_pounding_door_jt;stand pounding door
;man;work;standing;work_man:stand_mw_praying_jt;stand praying
;man;work;standing;work_man:stand_m_priest_jt;stand priest
;man;work;standing;work_man:stand_mw_prostitute_inviting_jt;stand prostitute inviting
;man;work;standing;work_man:stand_m_push_ups_jt;stand push ups
;man;work;standing;ep2_man:stand_m_read_book_jt;stand read book
;man;work;standing;work_man:stand_m_sawing_jt;stand sawing
;man;work;standing;work_man:stand_mw_search_with_stick_jt;stand search with stick
;man;work;standing;work_man:stand_mw_selling_flowers_jt;stand selling flowers
;man;work;standing;work_man:stand_md_sharpening_sword_jt;stand sharpening sword
;man;work;standing;work_man:stand_m_shepherd_jt;stand shepherd
;man;work;standing;ep2_man:stand_m_smoking_bob_jt;stand smoking bob
;man;work;standing;ep2_man:stand_m_sneeze_jt;stand sneeze
;man;work;standing;ep2_man:stand_m_sneeze_fancy_jt;stand sneeze fancy
;man;work;standing;work_man:stand_m_stepping_in_poop_jt;stand stepping in poop
;man;work;standing;work_man:stand_m_stepping_in_poop_dynamic_jt;stand stepping in poop dynamic
;man;work;standing;work_man:stand_m_taking_bricks_out_jt;stand taking bricks out
;man;work;standing;work_man:stand_m_taking_bricks_out_clumsy_jt;stand taking bricks out clumsy
;man;work;standing;work_man:stand_mw_tanning_jt;stand tanning
;man;work;standing;ep2_man:stand_m_tasting_wine_jt;stand tasting wine
;man;work;standing;ep2_man:stand_m_thinking_fancy_jt;stand thinking fancy
;man;work;standing;ep2_man:stand_m_thinking_fancy_dynamic_jt;stand thinking fancy dynamic
;man;work;standing;ep2_man:stand_m_thinking_fancy_static_jt;stand thinking fancy static
;man;work;standing;work_man:stand_m_throwing_knifes_jt;stand throwing knifes
;man;work;standing;ep2_man:stand_m_tossing_coin_jt;stand tossing coin
;man;work;standing;work_man:stand_m_tossing_hay_jt;stand tossing hay
;man;work;standing;work_man:stand_mw_trader_back_jt;stand trader back
;man;work;standing;work_man:stand_m_trader_back_and_front_jt;stand trader back and front
;man;work;standing;work_man:stand_m_trader_front_jt;stand trader front
;man;work;standing;work_man:stand_mw_training_sword_jt;stand training sword
;man;work;standing;work_man:stand_mw_training_sword_nopushup_jt;stand training sword nopushup
;man;work;standing;work_man:stand_mw_training_sword_nopushup_dynamic_jt;stand training sword nopushup dynamic
;man;work;standing;ep2_man:stand_m_waiting_rain_jt;stand waiting rain
;man;work;standing;ep2_man:stand_mw_work_watering_plants_jt;stand work watering plants
;man;work;standing;ep2_man:stand_mw_work_watering_plants_dynamic_jt;stand work watering plants dynamic
;man;work;standing;ep2_man:stand_m_work_with_vine_jt;stand work with vine
;man;work;standing;work_man:stand_m_working_workshop_jt;stand working workshop
;man;work;standing;work_man:stand_mw_writing_jt;stand writing
;man;work;standing;work_man:stand_mw_writing_nocount_jt;stand writing nocount
;man;work;standing;work_man:stand_mw_writing_short_jt;stand writing short
;man;work;;work_man:fixing_fish_stand;fixing fish stand
;man;work;;work_man:lean_m_at_map_jt;lean at map
;man;work;;ep2_man:lying_m_relaxed_grass_jt;lying relaxed grass
;man;work;;work_man:reading_book_jt;reading book
;man;;;work_man:sq107_cowering_jt;sq107 cowering
;man;;;feast_man:stand_md_party_jt;stand party
;man;;;feast_man:stand_m_party_short_jt;stand party short
;man;;;scout_man:stand_m_scout_jt;stand scout
;monster;bies;;bies:bies_eating_jt;bies eating
;monster;bies;;bies:bies_eating_short_jt;bies eating short
;monster;bies;;bies:mq7008_attack_well_jt;mq7008 attack well
;monster;caretaker;;ep1_caretaker:q604_caretaker_digging;q604 caretaker digging
;monster;caretaker;;ep1_caretaker_dlg:q604_caretaker_hold_tray;q604 caretaker hold tray
;monster;drowner;;drowner:drowner_angry_jt;drowner angry
;monster;drowner;;drowner:drowner_eating_jt;drowner eating
;monster;drowner;;drowner:q309_drowner_hurt;q309 drowner hurt
;monster;elemental;;elemental:golem_not_moving_jt;golem not moving
;monster;elemental;;elemental:sq210_golem_offline;sq210 golem offline
;monster;fleder;;ep2_fleder:q704_fleder_at_cart_jt;q704 fleder at cart
;monster;fleder;;ep2_fleder:q704_fleder_hibernating_jt;q704 fleder hibernating
;monster;fugas;;fugas:fugas_searching_jt;fugas searching
;monster;fugas;;fugas:gargoyle_idle_jt;gargoyle idle
;monster;fugas;;fugas:gargoyle_statue_01_jt;gargoyle statue 01
;monster;fugas;;fugas:gargoyle_statue_02_jt;gargoyle statue 02
;monster;fugas;;fugas:q111_fugas_sitting;q111 fugas sitting
;monster;ghoul;;ghoul:ghoul_eat;ghoul eat
;monster;ghoul;;ghoul:ghoul_taunt;ghoul taunt
;monster;giant;;giant:cyclops_angry_jt;cyclops angry
;monster;giant;;giant:cyclops_angry_short_jt;cyclops angry short
;monster;giant;;giant:cyclops_sit_jt;cyclops sit
;monster;giant;;giant:cyclops_yawn_jt;cyclops yawn
;monster;giant;;giant:ice_giant_sleeping;ice giant sleeping
;monster;giant;;giant:q202_giant_sleeping_jt;q202 giant sleeping
;monster;gryphon;;gryphon:gryphon_eating;gryphon eating
;monster;gryphon;;gryphon:gryphon_resting_jt;gryphon resting
;monster;gryphon;;gryphon:gryphon_taunting;gryphon taunting
;monster;gryphon;;gryphon:mq7018_basilisk_jt;mq7018 basilisk
;monster;hag;;gravehag:gravehag_eating;gravehag eating
;monster;hag;;gravehag:gravehag_idle;gravehag idle
;monster;hag;;gravehag:gravehag_taunting;gravehag taunting
;monster;hag;;gravehag:q107_monster_anna_idle;q107 monster anna idle
;monster;kikimore;;kikimore:kikimore_taunt1_jt;kikimore taunt1
;monster;kikimore;;kikimore:kikimore_taunt2_jt;kikimore taunt2
;monster;kikimore;;kikimore:kikimore_taunt3_jt;kikimore taunt3
;monster;leshy;;leshy:leshy_sit_jt;leshy sit
;monster;leshy;;leshy:q203_him_appear;q203 him appear
;monster;leshy;;leshy:q203_him_regen;q203 him regen
;monster;nekker;;nekker:mq7009_nekker_watching;mq7009 nekker watching
;monster;nekker;;nekker:nekker_angry_jt;nekker angry
;monster;nekker;;nekker:nekker_eating_jt;nekker eating
;monster;sirens;;sirens:mq2037_siren_eating_body;mq2037 siren eating body
;monster;sirens;;sirens:q202_siren_feeding_jt;q202 siren feeding
;monster;sirens;;sirens:siren_sitting_jt;siren sitting
;monster;troll;;troll:q202_trolls_jt;q202 trolls
;monster;troll;;troll:troll_sitting;troll sitting
;monster;uma;;uma:q401_uma_operating_table_dying;q401 uma operating table dying
;monster;uma;;uma:q401_uma_operating_table_nervous;q401 uma operating table nervous
;monster;uma;;uma:q401_uma_operating_table_relaxed;q401 uma operating table relaxed
;monster;uma;;uma:q401_uma_sitting;q401 uma sitting
;monster;uma;;uma:q401_uma_sitting_playing;q401 uma sitting playing
;monster;werewolf;;werewolf:q704_fleder_angry_jt;q704 fleder angry
;monster;werewolf;;werewolf:werewolf_angry_jp;werewolf angry jp
;monster;werewolf;;ep2_werewolf:werewolf_drunk_jt;werewolf drunk
;monster;werewolf;;werewolf:werewolf_eating;werewolf eating
;monster;werewolf;;werewolf:werewolf_idle_jt;werewolf idle
;monster;werewolf;;werewolf:werewolf_territorial_jt;werewolf territorial
;monster;werewolf;;werewolf:werwolf_lying_jt;werwolf lying
;monster;wight;;wight:spooncollector_jt_eating;spooncollector eating
;monster;wight;;wight:spooncollector_jt_taunt;spooncollector taunt
;monster;wyvern;;wyvern:wyvern_eating_jt;wyvern eating
;monster;wyvern;;wyvern:wyvern_taunt;wyvern taunt
;monster;;;arachas:arachas_idle_jt;arachas idle
;monster;;;ep2_bruxa:bruxa_feeding_jt;bruxa feeding
;monster;;;harpy:harpy_fly_jt;harpy fly
;monster;;;harpy:harpy_taunt_jt;harpy taunt
;monster;;;harpy:harpy_taunt_jt_02;harpy taunt 02
;monster;;;harpy:harpy_taunt_jt_03;harpy taunt 03
;monster;;;monster:monster_eating_jt;monster eating
;monster;;;noonwraith:noonwraith_spin_jt;noonwraith spin
;woman;dining;sitting;dining_woman:drink_sit_jt;drink sit
;woman;dining;sitting;dining_woman:q206_sit_table_dining;q206 sit table dining
;woman;dining;sitting;dining_woman:sit_mwd_dining_loud_jt;sit dining loud
;woman;dining;sitting;dining_woman:sit_mwd_drinking_loud_jt;sit drinking loud
;woman;dining;sitting;dining_woman:sit_table_dining_stool_01;sit table dining stool 01
;woman;dining;sitting;dining_woman:sit_table_dining_stool_02;sit table dining stool 02
;woman;dining;sitting;dining_woman:sit_table_dining_stool_03;sit table dining stool 03
;woman;dining;sitting;dining_woman:sit_table_dining_stool_04;sit table dining stool 04
;woman;dining;sitting;dining_woman:sit_table_drinking_stool_01;sit table drinking stool 01
;woman;dining;sitting;work_woman:sit_table_drinking_stool_02;sit table drinking stool 02
;woman;dining;sitting;dining_woman:sit_table_drinking_stool_03;sit table drinking stool 03
;woman;dining;sitting;dining_woman:sit_table_drinking_stool_04;sit table drinking stool 04
;woman;dining;sitting;ep2_noblewoman:sit_w_table_eating_jt;sit table eating
;woman;dining;sitting;ep2_noblewoman:sit_w_table_tasting_wine_jt;sit table tasting wine
;woman;dining;standing;work_woman:stand_mw_drinking_jt;stand drinking
;woman;dining;standing;ep2_noblewoman:stand_w_eating_fancy_jt;stand eating fancy
;woman;dining;standing;ep2_noblewoman:stand_w_tasting_wine_jt;stand tasting wine
;woman;dining;;dining_woman:kneel_mw_eating_from_ground_jt;kneel eating from ground
;woman;dining;;dining_woman:marlene_eating_jt;marlene eating
;woman;dining;;dining_woman:q202_drink_sulking;q202 drink sulking
;woman;dining;;dining_woman:q202_navigator_drink;q202 navigator drink
;woman;emotional;sitting;work_woman:sit_mw_devastated_jt;sit devastated
;woman;emotional;sitting;work_woman:sit_mw_devastated_concious_jt;sit devastated concious
;woman;emotional;sitting;work_woman:sit_mw_devastated_dress_jt;sit devastated dress
;woman;emotional;sitting;work_woman:sit_mw_devastated_interactive_jt;sit devastated interactive
;woman;emotional;sitting;ep2_noblewoman:sit_w_flirting_jt;sit flirting
;woman;emotional;sitting;work_woman:sit_w_sex;sit sex
;woman;emotional;standing;work_woman:stand_mwdc_bored_jt;stand bored
;woman;emotional;standing;work_woman:stand_mwdc_bored_jt_short;stand bored short
;woman;emotional;standing;work_woman:stand_mw_cheering_loud_jt;stand cheering loud
;woman;emotional;standing;work_woman:stand_mw_cheering_simple_jt;stand cheering simple
;woman;emotional;standing;work_woman:stand_mw_clapping_hands_jt;stand clapping hands
;woman;emotional;standing;work_woman:stand_w_cowering_01_jt;stand cowering 01
;woman;emotional;standing;work_woman:stand_w_cowering_02_jt;stand cowering 02
;woman;emotional;standing;work_woman:stand_mw_crying_jt;stand crying
;woman;emotional;standing;work_woman:stand_w_dancing_jt;stand dancing
;woman;emotional;standing;ep2_woman:stand_w_dancing_drunk_jt;stand dancing drunk
;woman;emotional;standing;work_woman:stand_mw_dancing_folk_jt;stand dancing folk
;woman;emotional;standing;ep2_noblewoman:stand_w_dancing_formal_jt;stand dancing formal
;woman;emotional;standing;ep2_noblewoman:stand_w_dancing_formal_dynamic_jt;stand dancing formal dynamic
;woman;emotional;standing;work_woman:stand_mw_dancing_sexy_jt;stand dancing sexy
;woman;emotional;standing;work_woman:stand_mw_discussing_jt;stand discussing
;woman;emotional;standing;work_woman:stand_w_disgusted_jt;stand disgusted
;woman;emotional;standing;ep2_woman:stand_w_drunk_puke_jt;stand drunk puke
;woman;emotional;standing;ep2_noblewoman:stand_w_enjoying_nature_jt;stand enjoying nature
;woman;emotional;standing;ep2_noblewoman:stand_w_enjoying_nature_dynamic_jt;stand enjoying nature dynamic
;woman;emotional;standing;ep2_noblewoman:stand_w_fainting_jt;stand fainting
;woman;emotional;standing;work_woman:stand_w_flirt_jt;stand flirt
;woman;emotional;standing;work_woman:stand_mw_flirt_prostitute_jt;stand flirt prostitute
;woman;emotional;standing;work_woman:stand_w_flirt_prostitute_railing_jt;stand flirt prostitute railing
;woman;emotional;standing;ep2_noblewoman:stand_w_flirting_jt;stand flirting
;woman;emotional;standing;ep2_noblewoman:stand_w_kneeling_knight_jt;stand kneeling knight
;woman;emotional;standing;work_woman:stand_mwd_looking_in_direction_jt;stand looking in direction
;woman;emotional;standing;work_woman:stand_mw_lost_in_thoughts_jt;stand lost in thoughts
;woman;emotional;standing;work_woman:stand_mwc_listening_jt;stand mwc listening
;woman;emotional;standing;work_woman:stand_mw_negative_attitude_jt;stand negative attitude
;woman;emotional;standing;work_woman:stand_mw_sad_jt;stand sad
;woman;emotional;standing;work_woman:stand_mw_scared_jt;stand scared
;woman;emotional;standing;ep2_noblewoman:stand_w_sneeze_fancy_jt;stand sneeze fancy
;woman;emotional;standing;work_woman:stand_mw_tired_jt;stand tired
;woman;emotional;standing;work_woman:stand_mw_tossing_coins_02_ik_jt;stand tossing coins 02 ik
;woman;emotional;standing;work_woman:stand_mw_upset_jt;stand upset
;woman;guarding;;work_woman:stand_mw_guard_bow_jt;stand guard bow
;woman;guarding;;work_woman:stand_md_guard_sword_jt;stand guard sword
;woman;guarding;;work_woman:stand_mw_looking_around_jt;stand looking around
;woman;guarding;;work_woman:stand_mw_looking_down_jt;stand looking down
;woman;household;;household_woman:kneel_mw_brushing_floor_jt;kneel brushing floor
;woman;household;;household_woman:q002_herbalist_looking_at_table_jt;q002 herbalist looking at table
;woman;household;;household_woman:q401_yennefer_inspecting_megascope;q401 yennefer inspecting megascope
;woman;household;;household_woman:sit_w_brushing_hair_jt;sit brushing hair
;woman;household;;household_woman:stand_mw_chopping_vegetables_jt;stand chopping vegetables
;woman;household;;household_woman:stand_mw_cleaning_carpet_jt;stand cleaning carpet
;woman;household;;household_woman:stand_mw_cleaning_carpet_static_jt;stand cleaning carpet static
;woman;household;;household_woman:stand_mw_cleaning_mug_jt;stand cleaning mug
;woman;household;;household_woman:stand_mw_cooking_jt;stand cooking
;woman;household;;household_woman:stand_mw_cooking_jt_perfume;stand cooking perfume
;woman;household;;household_woman:stand_mw_cooking_rat_jt;stand cooking rat
;woman;household;;household_woman:stand_w_feeding_hens_jt;stand feeding hens
;woman;household;;household_woman:stand_w_hang_up_laundry_jt;stand hang up laundry
;woman;household;;household_woman:stand_w_looking_mirror_jt;stand looking mirror
;woman;household;;household_woman:stand_w_pouring_bucket_jt;stand pouring bucket
;woman;household;;household_woman:stand_w_shaking_bedding_jt;stand shaking bedding
;woman;household;;household_woman:stand_w_sweeping_floor_jt;stand sweeping floor
;woman;household;;household_woman:stand_w_washing_cloths_jt;stand washing cloths
;woman;marketplace;;work_woman:stand_mwd_greeting_casual_jt;stand greeting casual
;woman;marketplace;;work_woman:stand_mwd_greeting_official_jt;stand greeting official
;woman;marketplace;;household_woman:stand_mwd_looking_at_goods_jt;stand looking at goods
;woman;marketplace;;household_woman:stand_mwd_looking_at_goods_short_jt;stand looking at goods short
;woman;marketplace;;work_woman:stand_mw_talking_aggressive_jt;stand talking aggressive
;woman;marketplace;;work_woman:stand_mw_talking_cheerful_jt;stand talking cheerful
;woman;marketplace;;work_woman:stand_mw_talking_sad_jt;stand talking sad
;woman;marketplace;;work_woman:stand_mw_tossing_coins_01_jt;stand tossing coins 01
;woman;marketplace;;work_woman:stand_mw_tossing_coins_02_jt;stand tossing coins 02
;woman;quest;;work_woman:e3_harrased_woman_jt;e3 harrased woman
;woman;quest;;work_woman:lie_mw_ground_drunk_concious_jt;lie ground drunk concious
;woman;quest;;work_woman:lie_mw_ground_drunk_jt_reactions;lie ground drunk reactions
;woman;quest;;quest_woman:mq2048_woman_dead;mq2048 woman dead
;woman;quest;;quest_woman:mq2048_woman_defend;mq2048 woman defend
;woman;quest;;quest_woman:mq2048_woman_search_horizon;mq2048 woman search horizon
;woman;quest;;work_woman:mq6004_jt_boxes;mq6004 boxes
;woman;quest;;work_woman:mq6004_jt_writing;mq6004 writing
;woman;quest;;work_woman:mq7007_sit_mw_devastated_jt;mq7007 sit devastated
;woman;quest;;ep2_noblewoman:mq7007_sorceress_statue_jt;mq7007 sorceress statue
;woman;quest;;work_woman:mq7017_yelling_jt;mq7017 yelling
;woman;quest;;work_woman:q101_survivor_devastated;q101 survivor devastated
;woman;quest;;quest_woman:q104_keira_looking;q104 keira looking
;woman;quest;;quest_woman:q104_keira_looking_down;q104 keira looking down
;woman;quest;;quest_woman:q104_keira_spell_long;q104 keira spell long
;woman;quest;;quest_woman:q104_sorceress_casts_spell;q104 sorceress casts spell
;woman;quest;;work_woman:q106_keira_sex_wait;q106 keira sex wait
;woman;quest;;work_woman:q107_crazy_anna_idle;q107 crazy anna idle
;woman;quest;;work_woman:q111_lost_in_thoughts_jt;q111 lost in thoughts
;woman;quest;;work_woman:q111_sabath_waiting_woman;q111 sabath waiting woman
;woman;quest;;work_woman:q203_woman_examine;q203 woman examine
;woman;quest;;quest_woman:q205_praying_funeral;q205 praying funeral
;woman;quest;;work_woman:q208_old_woman_tired;q208 old woman tired
;woman;quest;;work_woman:q208_warrior_cheer_aft_coronation;q208 warrior cheer aft coronation
;woman;quest;;quest_woman:q210_sorceress_holds_spell;q210 sorceress holds spell
;woman;quest;;work_woman:q210_yen_open_door;q210 yen open door
;woman;quest;;work_woman:q301_triss_casts_rats;q301 triss casts rats
;woman;quest;;work_woman:q301_triss_pissed;q301 triss pissed
;woman;quest;;quest_woman:q303_triss_in_handcuffs;q303 triss in handcuffs
;woman;quest;;quest_woman:q305_audience_theatre_only_bravo;q305 audience theatre only bravo
;woman;quest;;quest_woman:q305_juggler_lady_bows_and_shows_left;q305 juggler lady bows and shows left
;woman;quest;;quest_woman:q305_juggler_lady_bows_and_shows_right;q305 juggler lady bows and shows right
;woman;quest;;quest_woman:q305_juggler_woman_sits_ground;q305 juggler woman sits ground
;woman;quest;;quest_woman:q305_priscilla_dudu;q305 priscilla dudu
;woman;quest;;quest_woman:q308_blanka_injured_bed;q308 blanka injured bed
;woman;quest;;quest_woman:q308_blanka_injured_bed_2;q308 blanka injured bed 2
;woman;quest;;work_woman:q308_woman_tied;q308 woman tied
;woman;quest;;quest_woman:q309_alone_woman_dancing;q309 alone woman dancing
;woman;quest;;quest_woman:q309_landlady_searches_triss_room;q309 landlady searches triss room
;woman;quest;;work_woman:q309_mages_landlady_crying;q309 mages landlady crying
;woman;quest;;quest_woman:q309_sorceress_sit_ground_devasteted;q309 sorceress sit ground devasteted
;woman;quest;;quest_woman:q309_sorceress_standing_devastated;q309 sorceress standing devastated
;woman;quest;;quest_woman:q309_triss_in_library;q309 triss in library
;woman;quest;;quest_woman:q309_triss_talk_to_landlords;q309 triss talk to landlords
;woman;quest;;quest_woman:q309_triss_waiting_street;q309 triss waiting street
;woman;quest;;quest_woman:q309_triss_waits_corner;q309 triss waits corner
;woman;quest;;work_woman:q309_woman_crying_fast_leave_anim;q309 woman crying fast leave anim
;woman;quest;;quest_woman:q309_woman_shocked;q309 woman shocked
;woman;quest;;quest_woman:q309_woman_worries;q309 woman worries
;woman;quest;;quest_woman:q310_philippa_blind_combat_jt;q310 philippa blind combat
;woman;quest;;quest_woman:q311_geels_model;q311 geels model
;woman;quest;;quest_woman:q311_woman_arguing;q311 woman arguing
;woman;quest;;quest_woman:q501_sorceress_casting;q501 sorceress casting
;woman;quest;;work_woman:q504_ciri_wait_bear;q504 ciri wait bear
;woman;quest;;quest_woman:q505_herbalist_burning;q505 herbalist burning
;woman;quest;;work_woman:q505_officer_sit_writing;q505 officer sit writing
;woman;quest;;ep1_quest_w:q604_iris_following_olg;q604 iris following olg
;woman;quest;;ep1_quest_w:q604_iris_painting;q604 iris painting
;woman;quest;;ep1_quest_w:q604_iris_sad_dinner;q604 iris sad dinner
;woman;quest;;ep1_quest_w:q604_iris_sit_dinner;q604 iris sit dinner
;woman;quest;;ep1_quest_w:q604_iris_very_sad;q604 iris very sad
;woman;quest;;ep1_quest_w:q604_mother_sit_dinner;q604 mother sit dinner
;woman;quest;;ep1_shani_hanging:q605_shani_hanging_jt;q605 shani hanging
;woman;quest;;ep2_noblewoman:q701_noblewoman_angry_jt;q701 noblewoman angry
;woman;quest;;ep2_woman:q701_preacher_woman_jt;q701 preacher woman
;woman;quest;;work_woman:q701_sit_mw_devastated_conscious_jt;q701 sit devastated conscious
;woman;quest;;work_woman:q701_stand_child_crying_jt;q701 stand child crying
;woman;quest;;work_woman:q701_stand_mw_crying_concious_jt;q701 stand crying concious
;woman;quest;;ep2_woman:q703_w_lie_posing_jt;q703 lie posing
;woman;quest;;ep2_noble_woman_dialog:q704_diva_orphanage_jt;q704 diva orphanage
;woman;quest;;ep1_quest_w:shani_reanimating_jt;shani reanimating
;woman;quest;;work_woman:sit_mw_devastated_interactable_jt;sit devastated interactable
;woman;quest;;work_woman:sq107_uncursed_woman;sq107 uncursed woman
;woman;quest;;quest_woman:sq301_fat_woman_eating;sq301 fat woman eating
;woman;quest;;quest_woman:sq301_triss_adjusts_clothes;sq301 triss adjusts clothes
;woman;quest;;quest_woman:sq301_triss_leaning_against_wall;sq301 triss leaning against wall
;woman;quest;;quest_woman:sq301_triss_on_bench;sq301 triss on bench
;woman;quest;;quest_woman:sq301_triss_on_bench_short;sq301 triss on bench short
;woman;quest;;quest_woman:sq301_triss_pets_horse;sq301 triss pets horse
;woman;quest;;quest_woman:sq301_triss_preparing_for_ball;sq301 triss preparing for ball
;woman;quest;;quest_woman:sq301_triss_sits_sad_party_cancelled;sq301 triss sits sad party cancelled
;woman;quest;;quest_woman:sq301_woman_dancing_sexy;sq301 woman dancing sexy
;woman;quest;;quest_woman:sq301_woman_devastated_idle;sq301 woman devastated idle
;woman;quest;;quest_woman:sq301_woman_gossip;sq301 woman gossip
;woman;quest;;quest_woman:sq301_woman_party_calming_crying;sq301 woman party calming crying
;woman;quest;;quest_woman:sq301_woman_party_drinking;sq301 woman party drinking
;woman;quest;;quest_woman:sq301_woman_party_drinking_loop;sq301 woman party drinking loop
;woman;quest;;quest_woman:sq301_woman_party_listening;sq301 woman party listening
;woman;quest;;quest_woman:sq301_woman_party_upset;sq301 woman party upset
;woman;quest;;quest_woman:sq301_woman_standing_aggressive;sq301 woman standing aggressive
;woman;quest;;ep2_noble_woman_dialog:sq701_vivienne_stand_end_jt;sq701 vivienne stand end
;woman;quest;;ep2_noblewoman:sq703_stand_w_enjoying_nature_jt;sq703 stand enjoying nature
;woman;quest;;work_woman:stand_mw_crying_i_jt;stand crying i
;woman;quest;;work_woman:stand_mw_crying_interrupt_jt;stand crying interrupt
;woman;quest;;ep1_quest_w:stand_w_toast_jt;stand toast
;woman;quest;;ep1_quest_w:w_beheading_scene_jt;w beheading scene
;woman;rain;;rain_shelter_woman:rain_stand_w_hands_on_hips_jt;rain stand hands on hips
;woman;rain;;rain_shelter_woman:rain_stand_w_hopeless_jt;rain stand hopeless
;woman;rain;;rain_shelter_woman:rain_stand_w_nervous_jt;rain stand nervous
;woman;rain;;rain_shelter_woman:rain_stand_w_scratching_jt;rain stand scratching
;woman;rain;;rain_shelter_woman:rain_stand_w_vain_jt;rain stand vain
;woman;rain;;rain_shelter_woman:stand_w_noblewoman_rain;stand noblewoman rain
;woman;rain;;rain_shelter_woman:stand_w_rain_jt;stand rain
;woman;resting;sitting;resting_woman:mq7009_jt_sit_picnic_woman;mq7009 sit picnic woman
;woman;resting;sitting;resting_woman:q106_chair_sit_ghost_no_pre_jt;q106 chair sit ghost no pre
;woman;resting;sitting;resting_woman:q504_ciri_sit_rock;q504 ciri sit rock
;woman;resting;sitting;resting_woman:sit_mw_bath_jt;sit bath
;woman;resting;sitting;resting_woman:sit_mwd_bench_jt;sit bench
;woman;resting;sitting;resting_woman:sit_mwd_chair_jt;sit chair
;woman;resting;sitting;resting_woman:sit_mwd_chair_ignore_collision_jt;sit chair ignore collision
;woman;resting;sitting;resting_woman:sit_w_ground_jt;sit ground
;woman;resting;sitting;dining_woman:sit_mw_ground_hopeless_jt;sit ground hopeless
;woman;resting;sitting;resting_woman:sit_mw_ground_hopeless_jt;sit ground hopeless
;woman;resting;sitting;resting_woman:sit_mw_ground_sick_jt;sit ground sick
;woman;resting;sitting;resting_woman:sit_mw_ground_warming_up_jt;sit ground warming up
;woman;resting;sitting;resting_woman:sit_w_low_happy_jt;sit low happy
;woman;resting;sitting;resting_woman:sit_noble_w_proud_jt;sit noble proud
;woman;resting;sitting;household_woman:sit_nw_brushing_hair_jt;sit nw brushing hair
;woman;resting;sitting;resting_woman:sit_mw_playing_dice_01_jt;sit playing dice 01
;woman;resting;sitting;resting_woman:sit_mw_playing_dice_02_jt;sit playing dice 02
;woman;resting;sitting;resting_woman:sit_w_sauna_01_jt;sit sauna 01
;woman;resting;sitting;resting_woman:sit_w_sauna_01_looped_jt;sit sauna 01 looped
;woman;resting;sitting;resting_woman:sit_w_sauna_02_jt;sit sauna 02
;woman;resting;sitting;resting_woman:sit_mw_sleeping_jt;sit sleeping
;woman;resting;sitting;resting_woman:sit_mw_sleeping_awake_jt;sit sleeping awake
;woman;resting;sitting;ep2_noblewoman:sit_w_with_cat_jt;sit with cat
;woman;resting;standing;resting_woman:q703_stand_mw_sightseeing_dynamic_jt;q703 stand sightseeing dynamic
;woman;resting;standing;resting_woman:stand_mw_adjusting_clothes_jt;stand adjusting clothes
;woman;resting;standing;resting_woman:stand_mwd_arms_crossed_jt;stand arms crossed
;woman;resting;standing;resting_woman:stand_mwd_arms_crossed_short_jt;stand arms crossed short
;woman;resting;standing;resting_woman:stand_w_chauffer_jt;stand chauffer
;woman;resting;standing;resting_woman:stand_mw_coughing_jt;stand coughing
;woman;resting;standing;resting_woman:stand_w_hands_on_hips_jt;stand hands on hips
;woman;resting;standing;resting_woman:stand_mw_hopeless_jt;stand hopeless
;woman;resting;standing;idle_woman:stand_mwdc_idle_jt;stand idle
;woman;resting;standing;idle_woman:stand_mwdc_idle_short_jt;stand idle short
;woman;resting;standing;resting_woman:stand_mw_nervous_jt;stand nervous
;woman;resting;standing;ep2_noblewoman:stand_w_picking_flowers_jt;stand picking flowers
;woman;resting;standing;ep2_noblewoman:stand_w_picking_flowers_dynamic_jt;stand picking flowers dynamic
;woman;resting;standing;ep2_noblewoman:stand_w_picking_flowers_static_jt;stand picking flowers static
;woman;resting;standing;resting_woman:stand_mwd_scratching_jt;stand scratching
;woman;resting;standing;resting_woman:stand_mwd_sick_jt;stand sick
;woman;resting;standing;resting_woman:stand_mw_sightseeing_jt;stand sightseeing
;woman;resting;standing;resting_woman:stand_mw_sightseeing_dynamic_jt;stand sightseeing dynamic
;woman;resting;standing;ep2_noblewoman:stand_w_umbrella_jt;stand umbrella
;woman;resting;standing;resting_woman:stand_w_vain_jt;stand vain
;woman;resting;standing;resting_woman:stand_w_warming_up_jt;stand warming up
;woman;resting;standing;resting_woman:stand_mw_with_fan_jt;stand with fan
;woman;resting;;resting_woman:kneel_mw_crouch_jt;kneel crouch
;woman;resting;;work_woman:kneel_mw_unconscious_jt;kneel unconscious
;woman;resting;;resting_woman:lean_mw_fence_on_arms_jt;lean fence on arms
;woman;resting;;resting_woman:lean_w_table_back_jt;lean table back
;woman;resting;;work_woman:lie_w_relaxed_on_grass_jt;lie relaxed on grass
;woman;resting;;resting_woman:mq3026_audience_mw1;mq3026 audience mw1
;woman;resting;;resting_woman:mq3026_audience_mw2;mq3026 audience mw2
;woman;resting;;resting_woman:mq7008_lean_mw_fence_on_arms_no_wave_jt;mq7008 lean fence on arms no wave
;woman;resting;;resting_woman:q001_yennefer_reading_jt;q001 yennefer reading
;woman;resting;;resting_woman:q111_bench;q111 bench
;woman;resting;;resting_woman:q111_bench_2;q111 bench 2
;woman;resting;;resting_woman:q111_imlerith_throne;q111 imlerith throne
;woman;resting;;resting_woman:q203_becca_unconcious;q203 becca unconcious
;woman;resting;;resting_woman:q203_bench_abandoned_house;q203 bench abandoned house
;woman;resting;;resting_woman:q301_dreamer_aft_wakeup;q301 dreamer aft wakeup
;woman;resting;;resting_woman:q301_dreamer_sitting_table;q301 dreamer sitting table
;woman;resting;;resting_woman:q301_dreamer_sleep;q301 dreamer sleep
;woman;resting;;resting_woman:q305_audience_bench;q305 audience bench
;woman;resting;;resting_woman:q305_audience_bench2;q305 audience bench2
;woman;resting;;resting_woman:q309_bottles_merchant_jt;q309 bottles merchant
;woman;resting;;resting_woman:q504_sorc_sitting_table;q504 sorc sitting table
;woman;resting;;resting_woman:q505_ciri_bench;q505 ciri bench
;woman;resting;;resting_woman:q603_artist_sitting_jt;q603 artist sitting
;woman;resting;;resting_woman:q705_ciri_chilling_jt;q705 ciri chilling
;woman;resting;;resting_woman:q705_triss_chilling_jt;q705 triss chilling
;woman;resting;;resting_woman:q705_yen_chilling_jt;q705 yen chilling
;woman;rude;;work_woman:lie_mw_ground_drunk_jt;lie ground drunk
;woman;rude;;work_woman:sit_w_drunk_jt;sit drunk
;woman;sleeping;;sleeping_woman:lie_mwdc_bed_still_no_mesh_jt;lie bed still no mesh
;woman;sleeping;;sleeping_woman:lie_mwdc_sleep_bed_l_jt;lie sleep bed l
;woman;sleeping;;sleeping_woman:lie_mwdc_sleep_bed_l_jt_hospital;lie sleep bed l hospital
;woman;sleeping;;sleeping_woman:lie_mwdc_sleep_bed_l_new_jt;lie sleep bed l new
;woman;sleeping;;sleeping_woman:lie_mwdc_sleep_bed_l_new_dress_jt;lie sleep bed l new dress
;woman;sleeping;;sleeping_woman:lie_mwdc_sleep_bed_r_jt;lie sleep bed r
;woman;sleeping;;sleeping_woman:lie_mwdc_sleep_bed_r_new_jt;lie sleep bed r new
;woman;sleeping;;sleeping_woman:lie_mwdc_sleep_bed_r_new_dress_jt;lie sleep bed r new dress
;woman;sleeping;;sleeping_woman:lie_mwdc_sleep_ground_jt;lie sleep ground
;woman;sleeping;;sleeping_woman:lie_mwdc_sleep_ground_conscious_jt;lie sleep ground conscious
;woman;sleeping;;sleeping_woman:lie_mw_sleep_rich_bed_l_new_jt;lie sleep rich bed l new
;woman;sleeping;;sleeping_woman:lie_mw_sleep_rich_bed_l_new_jt_concious;lie sleep rich bed l new concious
;woman;sleeping;;sleeping_woman:lie_mw_sleep_rich_bed_l_new_dress_jt;lie sleep rich bed l new dress
;woman;sleeping;;sleeping_woman:lie_mw_sleep_rich_bed_r_new_jt;lie sleep rich bed r new
;woman;sleeping;;sleeping_woman:mq7001_sit_m_sleep_chair;mq7001 sit sleep chair
;woman;sleeping;;sleeping_woman:mq7002_jt_sleepy_knight;mq7002 sleepy knight
;woman;sleeping;;resting_woman:q310_sit_mw_sleeping_jt;q310 sit sleeping
;woman;sleeping;;ep1_quest_w:q604_iris_sleeping;q604 iris sleeping
;woman;sleeping;;sleeping_woman:sit_mwd_ground_sleep_jt;sit ground sleep
;woman;sleeping;;sleeping_woman:sit_m_sleep_chair;sit sleep chair
;woman;sleeping;;sleeping_woman:sit_m_sleep_chair_copy;sit sleep chair copy
;woman;sleeping;;sleeping_woman:sleep_bed;sleep bed
;woman;sleeping;;sleeping_woman:sleep_bed_r;sleep bed r
;woman;work;kneeling;work_woman:kneel_m_caring_sick_jt;kneel caring sick
;woman;work;kneeling;work_woman:kneel_mw_jt;kneel mw
;woman;work;kneeling;work_woman:kneel_mw_search_ground_jt;kneel search ground
;woman;work;sitting;work_woman:sit_w_churning_butter_jt;sit churning butter
;woman;work;sitting;work_woman:sit_w_infant_crib_jt;sit infant crib
;woman;work;sitting;ep2_noblewoman:sit_w_makeup_jt;sit makeup
;woman;work;sitting;work_woman:sit_mw_milking_cow_jt;sit milking cow
;woman;work;sitting;work_woman:sit_w_music_lute_jt;sit music lute
;woman;work;sitting;work_woman:sit_w_plucking_chicken_jt;sit plucking chicken
;woman;work;sitting;work_woman:sit_w_plucking_crows_jt;sit plucking crows
;woman;work;sitting;work_woman:sit_mw_praying_ground_jt;sit praying ground
;woman;work;sitting;work_woman:sit_mw_prostitute_inviting_jt;sit prostitute inviting
;woman;work;sitting;work_woman:sit_w_prostitute_on_bed_jt;sit prostitute on bed
;woman;work;sitting;work_woman:sit_w_reading_book_jt;sit reading book
;woman;work;sitting;work_woman:sit_w_spinning_jt;sit spinning
;woman;work;sitting;work_woman:sit_w_weaving_jt;sit weaving
;woman;work;sitting;work_woman:sit_w_writing_jt;sit writing
;woman;work;standing;work_woman:stand_m_armorer_fixing_table_jt;stand armorer fixing table
;woman;work;standing;work_woman:stand_m_armorer_fixing_table_02_jt;stand armorer fixing table 02
;woman;work;standing;work_woman:stand_m_armorer_fixing_table_03_jt;stand armorer fixing table 03
;woman;work;standing;work_woman:stand_mw_brushing_horse_jt;stand brushing horse
;woman;work;standing;work_woman:stand_mw_casting_jt;stand casting
;woman;work;standing;work_woman:stand_mw_checking_lice_jt;stand checking lice
;woman;work;standing;work_woman:stand_mw_cleaning_wall_jt;stand cleaning wall
;woman;work;standing;ep2_woman:stand_w_clomping_wine_jt;stand clomping wine
;woman;work;standing;work_woman:stand_w_coloring_clothes_jt;stand coloring clothes
;woman;work;standing;ep2_woman:stand_w_cutting_hedges_jt;stand cutting hedges
;woman;work;standing;ep2_woman:stand_w_digging_shovel_jt;stand digging shovel
;woman;work;standing;ep2_woman:stand_w_digging_shovel_dynamic_jt;stand digging shovel dynamic
;woman;work;standing;work_woman:stand_mwd_farmer_hoe_jt;stand farmer hoe
;woman;work;standing;work_woman:stand_mw_field_scythe_jt;stand field scythe
;woman;work;standing;work_woman:stand_mw_gutting_fish_jt;stand gutting fish
;woman;work;standing;work_woman:stand_w_infant_on_arms_jt;stand infant on arms
;woman;work;standing;work_woman:stand_mw_music_fiddle_jt;stand music fiddle
;woman;work;standing;work_woman:stand_mw_music_flute_jt;stand music flute
;woman;work;standing;work_woman:stand_mw_picking_fruits_jt;stand picking fruits
;woman;work;standing;ep2_woman:stand_w_picking_grapes_jt;stand picking grapes
;woman;work;standing;ep2_woman:stand_w_picking_grapes_dynamic_jt;stand picking grapes dynamic
;woman;work;standing;work_woman:stand_mwd_picking_herbs_jt;stand picking herbs
;woman;work;standing;work_woman:stand_mwd_picking_herbs_dynamic_jt;stand picking herbs dynamic
;woman;work;standing;ep2_noblewoman:stand_w_posing_mirror_jt;stand posing mirror
;woman;work;standing;ep2_noblewoman:stand_w_posing_painter_01_jt;stand posing painter 01
;woman;work;standing;ep2_noblewoman:stand_w_posing_painter_02_jt;stand posing painter 02
;woman;work;standing;household_woman:stand_w_pouring_bucket_with_grapes_jt;stand pouring bucket with grapes
;woman;work;standing;work_woman:stand_mw_praying_jt;stand praying
;woman;work;standing;work_woman:stand_w_praying_ritual;stand praying ritual
;woman;work;standing;work_woman:stand_mw_prostitute_inviting_jt;stand prostitute inviting
;woman;work;standing;work_woman:stand_w_prostitute_inviting_railing_jt;stand prostitute inviting railing
;woman;work;standing;work_woman:stand_mw_search_with_stick_jt;stand search with stick
;woman;work;standing;work_woman:stand_mw_selling_flowers_jt;stand selling flowers
;woman;work;standing;ep2_woman:stand_w_sneeze_jt;stand sneeze
;woman;work;standing;ep2_man:stand_m_staring_at_woman_jt;stand staring at woman
;woman;work;standing;work_woman:stand_mw_tanning_jt;stand tanning
;woman;work;standing;ep2_noblewoman:stand_w_tossing_coin_jt;stand tossing coin
;woman;work;standing;work_woman:stand_mw_trader_back_jt;stand trader back
;woman;work;standing;work_woman:stand_mw_training_sword_jt;stand training sword
;woman;work;standing;work_woman:stand_mw_training_sword_nopushup_jt;stand training sword nopushup
;woman;work;standing;work_woman:stand_mw_training_sword_nopushup_dynamic_jt;stand training sword nopushup dynamic
;woman;work;standing;work_woman:stand_w_waiting_jt;stand waiting
;woman;work;standing;work_woman:stand_w_waitress_serving_jt;stand waitress serving
;woman;work;standing;ep2_woman:stand_mw_work_watering_plants_jt;stand work watering plants
;woman;work;standing;ep2_woman:stand_mw_work_watering_plants_dynamic_jt;stand work watering plants dynamic
;woman;work;standing;ep2_woman:stand_w_work_with_wine_jt;stand work with wine
;woman;work;standing;ep2_woman:stand_w_work_with_wine_dynamic_jt;stand work with wine dynamic
;woman;work;standing;work_woman:stand_mw_writing_jt;stand writing
;woman;work;standing;work_woman:stand_mw_writing_nocount_jt;stand writing nocount
;woman;work;standing;work_woman:stand_mw_writing_short_jt;stand writing short
;woman;work;;work_woman:praying_woman;praying woman
;woman;work;;work_woman:praying_woman_inact;praying woman inact
;woman;work;;quest_woman:q305_woman_playing_lute_sad;q305 woman playing lute sad
;woman;work;;ep2_woman:q305_woman_playing_lute_sad;q305 woman playing lute sad
;woman;work;;work_woman:q305_woman_playing_lute_sad;q305 woman playing lute sad
;woman;work;;work_woman:reading_book_jt;reading book
;woman;work;;work_woman:woman_training_sword;woman training sword
;woman;;;quest_woman:stand_w_party_jt;stand party
